list_name;key;value;relation;import_value
BOIS_MORT_VALUES;0;;0;
BOIS_MORT_VALUES;1;non (absence);0;non (absence)
BOIS_MORT_VALUES;2;oui, au sol;0;oui, au sol
BOIS_MORT_VALUES;3;oui, sur pied;0;oui, sur pied
BOIS_MORT_VALUES;4;oui (sans précision);0;oui (sans précision)
CARHAB_BIOTOPES_VALUES;0;;0;
CARHAB_PHYSIO_VALUES;0;;0;
CLASSE_EFFECTIFS_VALUES;0;Non renseigné;0;Non renseigné
CLASSE_EFFECTIFS_VALUES;10;1 à 10;0;1 à 10
CLASSE_EFFECTIFS_VALUES;20;11 à 100;0;11 à 100
CLASSE_EFFECTIFS_VALUES;21;10 à 50;0;10 à 50
CLASSE_EFFECTIFS_VALUES;22;50 à 100;0;50 à 100
CLASSE_EFFECTIFS_VALUES;30;101 à 1 000;0;101 à 1 000
CLASSE_EFFECTIFS_VALUES;31;100 à 500;0;100 à 500
CLASSE_EFFECTIFS_VALUES;32;500 à 1 000;0;500 à 1 000
CLASSE_EFFECTIFS_VALUES;40;1 001 à 10 000;0;1 001 à 10 000
CLASSE_EFFECTIFS_VALUES;41;1 000 à 5 000;0;1 000 à 5 000
CLASSE_EFFECTIFS_VALUES;42;5 000 à 10 000;0;5 000 à 10 000
CLASSE_EFFECTIFS_VALUES;50;> 10 000;0;> 10 000
CLASSE_SURFACES_VALUES;0;Non renseigné;0;Non renseigné
CLASSE_SURFACES_VALUES;10;< 1 m²;0;< 1 m²
CLASSE_SURFACES_VALUES;20;1 à 10 m²;0;1 à 10 m²
CLASSE_SURFACES_VALUES;30;11 à 100 m²;0;11 à 100 m²
CLASSE_SURFACES_VALUES;31;10 à 50 m²;0;10 à 50 m²
CLASSE_SURFACES_VALUES;32;50 à 100 m²;0;50 à 100 m²
CLASSE_SURFACES_VALUES;40;101 à 1 000 m²;0;101 à 1 000 m²
CLASSE_SURFACES_VALUES;41;100 à 500 m²;0;100 à 500 m²
CLASSE_SURFACES_VALUES;42;500 à 1 000 m²;0;500 à 1 000 m²
CLASSE_SURFACES_VALUES;50;1 001 à 10 000 m²;0;1 001 à 10 000 m²
CLASSE_SURFACES_VALUES;51;1 000 à 5 000 m²;0;1 000 à 5 000 m²
CLASSE_SURFACES_VALUES;52;5 000 à 10 000 m²;0;5 000 à 10 000 m²
CLASSE_SURFACES_VALUES;60;> 10 000 m²;0;> 10 000 m²
CLASSE_SURFACES_VALUES;61;1 à 10 ha;0;1 à 10 ha
CLASSE_SURFACES_VALUES;62;> 10 ha;0;> 10 ha
COEF_AD_VALUES;0;;0;
COEF_AD_VALUES;1;i;0;i
COEF_AD_VALUES;2;r;0;r
COEF_AD_VALUES;3;+;0;+
COEF_AD_VALUES;4;1;0;1
COEF_AD_VALUES;5;2;0;2
COEF_AD_VALUES;6;3;0;3
COEF_AD_VALUES;7;4;0;4
COEF_AD_VALUES;8;5;0;5
COEF_AD_VALUES;9;2a;0;2a
COEF_AD_VALUES;10;2b;0;2b
COEF_AD_VALUES;12;(+);0;(+)
COHERENCE_TEMPORELLE_VALUES;0;;0;
COHERENCE_TEMPORELLE_VALUES;1;Trop tôt;0;Trop tôt
COHERENCE_TEMPORELLE_VALUES;2;Bonne période;0;Bonne période
COHERENCE_TEMPORELLE_VALUES;3;Trop tard;0;Trop tard
COMM_NON_SATUREES_VALUES;0;;0;
COMM_NON_SATUREES_VALUES;1;Communauté basale;0;Communauté basale
COMM_NON_SATUREES_VALUES;2;Communauté dérivée;0;Communauté dérivée
COMM_NON_SATUREES_VALUES;3;Communauté fragmentaire;0;Communauté fragmentaire
ELEMENTS_GROSSIERS_VALUES;0;;0;
ELEMENTS_GROSSIERS_VALUES;1;Graviers (0.2-2cm);0;Graviers (0.2-2cm)
ELEMENTS_GROSSIERS_VALUES;2;Cailloux (2-5cm);0;Cailloux (2-5cm)
ELEMENTS_GROSSIERS_VALUES;3;Pierres (5-20cm);0;Pierres (5-20cm)
ELEMENTS_GROSSIERS_VALUES;4;Blocs (>20cm);0;Blocs (>20cm)
ENNEIGEMENT_VALUES;0;;0;
ENNEIGEMENT_VALUES;1;Hyperchionophile;0;Hyperchionophile
ENNEIGEMENT_VALUES;2;Chionophile;0;Chionophile
ENNEIGEMENT_VALUES;3;Mésochionophile;0;Mésochionophile
ENNEIGEMENT_VALUES;4;Non concerné;0;Non concerné
EXHAUSTIVITE_VALUES;0;Non renseigné;0;Non renseigné
EXHAUSTIVITE_VALUES;1;Exhaustif;0;Exhaustif
EXHAUSTIVITE_VALUES;2;Non exhaustif;0;Non exhaustif
EXPOSITION_VALUES;0;;0;
EXPOSITION_VALUES;1;Nord;0;N
EXPOSITION_VALUES;2;Nord-Est;0;NE
EXPOSITION_VALUES;3;Est;0;E
EXPOSITION_VALUES;4;Sud-Est;0;SE
EXPOSITION_VALUES;5;Sud;0;S
EXPOSITION_VALUES;6;Sud-Ouest;0;SO
EXPOSITION_VALUES;7;Ouest;0;O
EXPOSITION_VALUES;8;Nord-Ouest;0;NO
EXPOSITION_VALUES;9;Nord-Nord-Est;0;NNE
EXPOSITION_VALUES;10;Est-Nord-Est;0;ENE
EXPOSITION_VALUES;11;Est-Sud-Est;0;ESE
EXPOSITION_VALUES;12;Sud-Sud-Est;0;SSE
EXPOSITION_VALUES;13;Sud-Sud-Ouest;0;SSO
EXPOSITION_VALUES;14;Ouest-Sud-Ouest;0;OSO
EXPOSITION_VALUES;15;Ouest-Nord-Ouest;0;ONO
EXPOSITION_VALUES;16;Nord-Nord-Ouest;0;NNO
EXPOSITION_VALUES;17;Pas d'exposition dominante;0;PED
FACTEUR_ETAT_VALUES;0;;0;
FACTEUR_ETAT_VALUES;1;Indéterminé;0;Indéterminé
FACTEUR_ETAT_VALUES;2;Actif;0;Actif
FACTEUR_ETAT_VALUES;3;Potentiel;0;Potentiel
FACTEUR_IMPACT_VALUES;0;;0;
FACTEUR_IMPACT_VALUES;1;Positif;0;Positif
FACTEUR_IMPACT_VALUES;2;Négatif;0;Négatif
FACTEUR_IMPACT_VALUES;3;Neutre;0;Neutre
FACTEUR_IMPACT_VALUES;4;Indéterminé;0;Indéterminé
FACTEUR_INFLUENCE_VALUES;0;;0;
FACTEUR_INFLUENCE_VALUES;1;A - Agriculture;0;Agriculture
FACTEUR_INFLUENCE_VALUES;2;A01 - Mise en culture (y compris augmenation de la surface agricole);1;Mise en culture (y compris augmenation de la surface agricole)
FACTEUR_INFLUENCE_VALUES;3;A02 - Modification des pratiques culturales (y compris la culture perenne de produits forestiers non ligneux : oliviers, vergers, vignes…);1;Modification des pratiques culturales (y compris la culture perenne de produits forestiers non ligneux : oliviers, vergers, vignes…)
FACTEUR_INFLUENCE_VALUES;4;A02.01 - Intensification agricole;2;Intensification agricole
FACTEUR_INFLUENCE_VALUES;5;A02.02 - Changement de type de culture;2;Changement de type de culture
FACTEUR_INFLUENCE_VALUES;6;A02.03 - Retournement de prairies;2;Retournement de prairies
FACTEUR_INFLUENCE_VALUES;7;A03 - Fauche de prairies;1;Fauche de prairies
FACTEUR_INFLUENCE_VALUES;8;A03.01 - Fauche intensive ou intensification;2;Fauche intensive ou intensification
FACTEUR_INFLUENCE_VALUES;9;A03.02 - Fauche non intensive;2;Fauche non intensive
FACTEUR_INFLUENCE_VALUES;10;A03.03 - Abandon / Absence de fauche;2;Abandon / Absence de fauche
FACTEUR_INFLUENCE_VALUES;11;A04 - Pâturage;1;Pâturage
FACTEUR_INFLUENCE_VALUES;12;A04.01 - Pâturage intensif;2;Pâturage intensif
FACTEUR_INFLUENCE_VALUES;13;A04.02 - Pâturage extensif;2;Pâturage extensif
FACTEUR_INFLUENCE_VALUES;14;A04.03 - Abandon de systèmes pastoraux, sous-pâturage;2;Abandon de systèmes pastoraux, sous-pâturage
FACTEUR_INFLUENCE_VALUES;15;A05 - Elevage (industriel) et reproduction animale;1;Elevage (industriel) et reproduction animale
FACTEUR_INFLUENCE_VALUES;16;A05.01 - Elevage;2;Elevage
FACTEUR_INFLUENCE_VALUES;17;A05.02 - Dépôt d'aliments pour le bétail;2;Dépôt d'aliments pour le bétail
FACTEUR_INFLUENCE_VALUES;18;A05.03 - Reproduction animale insuffisante;2;Reproduction animale insuffisante
FACTEUR_INFLUENCE_VALUES;19;A06 - Cultures annuelles ou pérennes;1;Cultures annuelles ou pérennes
FACTEUR_INFLUENCE_VALUES;20;A06.01 - Cultures annuelles pour la production alimentaire;2;Cultures annuelles pour la production alimentaire
FACTEUR_INFLUENCE_VALUES;21;A06.02 - Cultures pérennes de produits forestiers non ligneux (y compris oliviers, vergers, vignes…);2;Cultures pérennes de produits forestiers non ligneux (y compris oliviers, vergers, vignes…)
FACTEUR_INFLUENCE_VALUES;22;A06.03 - Production de biocarburants;2;Production de biocarburants
FACTEUR_INFLUENCE_VALUES;23;A06.04 - Arrêt de la mise en culture d'une parcelle;2;Arrêt de la mise en culture d'une parcelle
FACTEUR_INFLUENCE_VALUES;24;A07 - Utilisation de biocides, d'hormones et de produits chimiques;1;Utilisation de biocides, d'hormones et de produits chimiques
FACTEUR_INFLUENCE_VALUES;25;A08 - Fertilisation;1;Fertilisation
FACTEUR_INFLUENCE_VALUES;26;A09 - Irrigation;1;Irrigation
FACTEUR_INFLUENCE_VALUES;27;A10 - Remembrement agricole;1;Remembrement agricole
FACTEUR_INFLUENCE_VALUES;28;A10.01 - Elimination des haies et bosquets ou des broussailles;2;Elimination des haies et bosquets ou des broussailles
FACTEUR_INFLUENCE_VALUES;29;A10.02 - Elimination de murs de pierre ou de remblaies;2;Elimination de murs de pierre ou de remblaies
FACTEUR_INFLUENCE_VALUES;31;A11 - Autres activités agricoles;1;Autres activités agricoles
FACTEUR_INFLUENCE_VALUES;32;A99 - Plantations de haies et de bosquets;1;Plantations de haies et de bosquets
FACTEUR_INFLUENCE_VALUES;33;B - Sylviculture et opérations forestières;0;Sylviculture et opérations forestières
FACTEUR_INFLUENCE_VALUES;34;B01 - Plantation forestière en milieu ouvert;1;Plantation forestière en milieu ouvert
FACTEUR_INFLUENCE_VALUES;35;B01.01 - Plantation forestière en milieu ouvert (espèces autochtones);2;Plantation forestière en milieu ouvert (espèces autochtones)
FACTEUR_INFLUENCE_VALUES;36;B01.02 - Plantation forestière en terrain ouvert (espèces allochtones);2;Plantation forestière en terrain ouvert (espèces allochtones)
FACTEUR_INFLUENCE_VALUES;37;B02 - Gestion des forêts et des plantations & exploitation;1;Gestion des forêts et des plantations & exploitation
FACTEUR_INFLUENCE_VALUES;38;B02.01 - Replantation d'arbres dans une plantation forestière (après éclaircie…);2;Replantation d'arbres dans une plantation forestière (après éclaircie…)
FACTEUR_INFLUENCE_VALUES;39;B02.02 - Coupe forestière (éclaircie, coupe rase…);2;Coupe forestière (éclaircie, coupe rase…)
FACTEUR_INFLUENCE_VALUES;40;B02.03 - Elimination du sous-bois;2;Elimination du sous-bois
FACTEUR_INFLUENCE_VALUES;41;B02.04 - Elimination des arbres morts ou dépérissants;2;Elimination des arbres morts ou dépérissants
FACTEUR_INFLUENCE_VALUES;42;B02.05 - Production forestière non intensive (en laissant les arbres morts ou dépérissants sur pied);2;Production forestière non intensive (en laissant les arbres morts ou dépérissants sur pied)
FACTEUR_INFLUENCE_VALUES;43;B02.06 - Eclaircie;2;Eclaircie
FACTEUR_INFLUENCE_VALUES;44;B03 - Exploitation forestière sans reboisement ou régénération naturelle;1;Exploitation forestière sans reboisement ou régénération naturelle
FACTEUR_INFLUENCE_VALUES;45;B04 - Utilisation de biocides, d'hormones et de produits chimiques (sylviculture);1;Utilisation de biocides, d'hormones et de produits chimiques (sylviculture)
FACTEUR_INFLUENCE_VALUES;46;B05 - Utilisation de fertilisants (sylviculture);1;Utilisation de fertilisants (sylviculture)
FACTEUR_INFLUENCE_VALUES;47;B06 - Sylvopastoralisme;1;Sylvopastoralisme
FACTEUR_INFLUENCE_VALUES;48;B08 - Entretiens liés à la sylviculture, nettoyages, épandages;1;Entretiens liés à la sylviculture, nettoyages, épandages
FACTEUR_INFLUENCE_VALUES;50;B07 - Autres activités sylvicoles (ex : érosion due à une éclaircie, fragmentation…);1;Autres activités sylvicoles (ex : érosion due à une éclaircie, fragmentation…)
FACTEUR_INFLUENCE_VALUES;51;C - Exploitation minière, extraction de matériaux et production énergétique;0;Exploitation minière, extraction de matériaux et production énergétique
FACTEUR_INFLUENCE_VALUES;52;C01 - Exploitation minière et en carrière;1;Exploitation minière et en carrière
FACTEUR_INFLUENCE_VALUES;53;C01.01 - Extraction de sable et graviers;2;Extraction de sable et graviers
FACTEUR_INFLUENCE_VALUES;54;C01.02 - Carrières d'argile et de limon;2;Carrières d'argile et de limon
FACTEUR_INFLUENCE_VALUES;55;C01.03 - Extraction de tourbe;2;Extraction de tourbe
FACTEUR_INFLUENCE_VALUES;56;C01.04 - Mines;2;Mines
FACTEUR_INFLUENCE_VALUES;57;C01.05 - Salines;2;Salines
FACTEUR_INFLUENCE_VALUES;61;C01.06 - Etude géotechnique;2;Etude géotechnique
FACTEUR_INFLUENCE_VALUES;62;C01.07 - Autres exploitations minières ou activités d'extraction;2;Autres exploitations minières ou activités d'extraction
FACTEUR_INFLUENCE_VALUES;63;C02 - Exploration et extraction de pétrole ou de gaz;1;Exploration et extraction de pétrole ou de gaz
FACTEUR_INFLUENCE_VALUES;64;C02.01 - Forage d'exploration;2;Forage d'exploration
FACTEUR_INFLUENCE_VALUES;65;C02.02 - Forage d'exploitation;2;Forage d'exploitation
FACTEUR_INFLUENCE_VALUES;66;C02.03 - Plate-forme pétrolière fixe;2;Plate-forme pétrolière fixe
FACTEUR_INFLUENCE_VALUES;67;C02.04 - Plate-forme pétrolière flottante;2;Plate-forme pétrolière flottante
FACTEUR_INFLUENCE_VALUES;68;C02.05 - Navire de forage;2;Navire de forage
FACTEUR_INFLUENCE_VALUES;69;C03 - Utilisation d'énergie renouvelable abiotique;1;Utilisation d'énergie renouvelable abiotique
FACTEUR_INFLUENCE_VALUES;70;C03.01 - Production d'énergie géothermique;2;Production d'énergie géothermique
FACTEUR_INFLUENCE_VALUES;71;C03.02 - Production d'énergie solaire;2;Production d'énergie solaire
FACTEUR_INFLUENCE_VALUES;72;C03.03 - Production d'énergie éolienne;2;Production d'énergie éolienne
FACTEUR_INFLUENCE_VALUES;73;C03.04 - Production d'énergie marémotrice;2;Production d'énergie marémotrice
FACTEUR_INFLUENCE_VALUES;74;D - Voies de transport et de service;0;Voies de transport et de service
FACTEUR_INFLUENCE_VALUES;75;D01 - Routes, sentiers et voies ferrées;1;Routes, sentiers et voies ferrées
FACTEUR_INFLUENCE_VALUES;76;D01.01 - Sentiers, chemins, pistes cyclables (y compris route forestière);2;Sentiers, chemins, pistes cyclables (y compris route forestière)
FACTEUR_INFLUENCE_VALUES;77;D01.02A - Route;2;Route
FACTEUR_INFLUENCE_VALUES;78;D01.02B - Autoroute;2;Autoroute
FACTEUR_INFLUENCE_VALUES;79;D01.03 - Parking et aires de stationnements;2;Parking et aires de stationnements
FACTEUR_INFLUENCE_VALUES;80;D01.04 - Voie ferrée, TGV;2;Voie ferrée, TGV
FACTEUR_INFLUENCE_VALUES;81;D01.05 - Pont, viaduc;2;Pont, viaduc
FACTEUR_INFLUENCE_VALUES;82;D01.06 - Tunnel;2;Tunnel
FACTEUR_INFLUENCE_VALUES;83;D02 - Réseaux de communication et de transport de fluides et d'énergie;1;Réseaux de communication et de transport de fluides et d'énergie
FACTEUR_INFLUENCE_VALUES;84;D02.01 - Lignes électriques et téléphoniques;2;Lignes électriques et téléphoniques
FACTEUR_INFLUENCE_VALUES;85;D02.02 - Canalisations (gaz, pétrole…);2;Canalisations (gaz, pétrole…)
FACTEUR_INFLUENCE_VALUES;86;D02.03 - Tours et antennes de communication;2;Tours et antennes de communication
FACTEUR_INFLUENCE_VALUES;87;D02.09 - Autres formes de transport d'énergie;2;Autres formes de transport d'énergie
FACTEUR_INFLUENCE_VALUES;88;D03 - Voies de navigation, ports et constructions maritimes;1;Voies de navigation, ports et constructions maritimes
FACTEUR_INFLUENCE_VALUES;89;D03.01 - Zones portuaires;2;Zones portuaires
FACTEUR_INFLUENCE_VALUES;91;D03.02 - Voies de navigation;2;Voies de navigation
FACTEUR_INFLUENCE_VALUES;92;D03.03 - Constructions maritimes;2;Constructions maritimes
FACTEUR_INFLUENCE_VALUES;93;D04 - Aéroports, couloirs aériens;1;Aéroports, couloirs aériens
FACTEUR_INFLUENCE_VALUES;94;D04.01 - Aéroports;2;Aéroports
FACTEUR_INFLUENCE_VALUES;95;D04.02 - Aérodromes, héliports;2;Aérodromes, héliports
FACTEUR_INFLUENCE_VALUES;96;D04.03 - Couloirs aériens;2;Couloirs aériens
FACTEUR_INFLUENCE_VALUES;97;D05 - Amélioration de l'accessibilité au site;1;Amélioration de l'accessibilité au site
FACTEUR_INFLUENCE_VALUES;98;D06 - Autres formes de transport et de communication;2;Autres formes de transport et de communication
FACTEUR_INFLUENCE_VALUES;99;E - Urbanisation, développement résidentiel et commercial;0;Urbanisation, développement résidentiel et commercial
FACTEUR_INFLUENCE_VALUES;100;E01 - Zones urbanisées, habitations;1;Zones urbanisées, habitations
FACTEUR_INFLUENCE_VALUES;101;E01.01 - Urbanisation continue;2;Urbanisation continue
FACTEUR_INFLUENCE_VALUES;102;E01.02 - Urbanisation discontinue;2;Urbanisation discontinue
FACTEUR_INFLUENCE_VALUES;103;E01.03 - Habitations dispersées;2;Habitations dispersées
FACTEUR_INFLUENCE_VALUES;104;E01.04 - Autres formes d'habitations;2;Autres formes d'habitations
FACTEUR_INFLUENCE_VALUES;105;E02 - Zones industrielles ou commerciales;1;Zones industrielles ou commerciales
FACTEUR_INFLUENCE_VALUES;106;E02.01 - Usine;2;Usine
FACTEUR_INFLUENCE_VALUES;107;E02.02 - Stockage industriel;2;Stockage industriel
FACTEUR_INFLUENCE_VALUES;108;E02.03 - Autres zones industrielles / commerciales;2;Autres zones industrielles / commerciales
FACTEUR_INFLUENCE_VALUES;109;E03 - Décharges;1;Décharges
FACTEUR_INFLUENCE_VALUES;110;E03.01 - Dépôts de déchets ménagers / liés aux installations récréatives;2;Dépôts de déchets ménagers / liés aux installations récréatives
FACTEUR_INFLUENCE_VALUES;111;E03.02 - Dépôts de déchets industriels;2;Dépôts de déchets industriels
FACTEUR_INFLUENCE_VALUES;112;E03.03 - Dépôts de matériaux inertes;2;Dépôts de matériaux inertes
FACTEUR_INFLUENCE_VALUES;113;E03.04 - Autres décharges;2;Autres décharges
FACTEUR_INFLUENCE_VALUES;114;E04 - Bâtiments, constructions dans le paysage;1;Bâtiments, constructions dans le paysage
FACTEUR_INFLUENCE_VALUES;115;E04.01 - Bâtiments agricoles, constructions dans le paysage;2;Bâtiments agricoles, constructions dans le paysage
FACTEUR_INFLUENCE_VALUES;116;E04.02 - Bâtiments militaires, constructions dans le paysage (en dehors de zones de transport de type aéroport : cf.D);2;Bâtiments militaires, constructions dans le paysage (en dehors de zones de transport de type aéroport : cf.D)
FACTEUR_INFLUENCE_VALUES;117;E05 - Stockage de matériaux;1;Stockage de matériaux
FACTEUR_INFLUENCE_VALUES;118;E06 - Autres activités d'urbanisation, industrielles ou similaires;1;Autres activités d'urbanisation, industrielles ou similaires
FACTEUR_INFLUENCE_VALUES;119;E06.01 - Démolition de bâtiments et de constructions humaines (y compris ponts, murs.);2;Démolition de bâtiments et de constructions humaines (y compris ponts, murs.)
FACTEUR_INFLUENCE_VALUES;120;E06.02 - Reconstruction, rénovation de bâtiments;2;Reconstruction, rénovation de bâtiments
FACTEUR_INFLUENCE_VALUES;129;F - Utilisation des ressources biologiques (hors agriculture et sylviculture);0;Utilisation des ressources biologiques (hors agriculture et sylviculture)
FACTEUR_INFLUENCE_VALUES;142;F01 - Aquaculture (eau douce et marine);1;Aquaculture (eau douce et marine)
FACTEUR_INFLUENCE_VALUES;143;F01.01 - Aquaculture intensive, intensification;2;Aquaculture intensive, intensification
FACTEUR_INFLUENCE_VALUES;144;F01.02 - Culture sur filière / élevage en cage;2;Culture sur filière / élevage en cage
FACTEUR_INFLUENCE_VALUES;145;F01.03 - Culture sur le fond, à plat, sur bouchots et sur table;2;Culture sur le fond, à plat, sur bouchots et sur table
FACTEUR_INFLUENCE_VALUES;150;F02 - Pêche et récolte de ressources aquatiques;1;Pêche et récolte de ressources aquatiques
FACTEUR_INFLUENCE_VALUES;151;F02.01 - Pêche professionnelle passive (arts dormants);2;Pêche professionnelle passive (arts dormants)
FACTEUR_INFLUENCE_VALUES;152;F02.02 - Pêche professionnelle active (arts trainants);2;Pêche professionnelle active (arts trainants)
FACTEUR_INFLUENCE_VALUES;160;F02.03 - Pêche de loisirs;2;Pêche de loisirs
FACTEUR_INFLUENCE_VALUES;161;F02.03.01A - Pêche à la traîne;3;Pêche à la traîne
FACTEUR_INFLUENCE_VALUES;162;F02.03.02A - Pêche à la ligne;3;Pêche à la ligne
FACTEUR_INFLUENCE_VALUES;163;F02.03.03A - Pêche à pied;3;Pêche à pied
FACTEUR_INFLUENCE_VALUES;164;F03 - Chasse et collecte d'animaux sauvages (terrestres);1;Chasse et collecte d'animaux sauvages (terrestres)
FACTEUR_INFLUENCE_VALUES;165;F03.01 - Chasse;2;Chasse
FACTEUR_INFLUENCE_VALUES;166;F03.02 - Prélèvements sur la faune terrestre;2;Prélèvements sur la faune terrestre
FACTEUR_INFLUENCE_VALUES;167;F04 - Prélèvements sur la flore;1;Prélèvements sur la flore
FACTEUR_INFLUENCE_VALUES;168;F04.01 - Pillage de stations floristiques;2;Pillage de stations floristiques
FACTEUR_INFLUENCE_VALUES;169;F04.02 - Collecte (champignons, lichens, baies, …);2;Collecte (champignons, lichens, baies, …)
FACTEUR_INFLUENCE_VALUES;170;F05 - Prélèvements illégaux de la faune marine;1;Prélèvements illégaux de la faune marine
FACTEUR_INFLUENCE_VALUES;171;F05.01 - Dynamitage sous-marin (dommages sur les récifs, perturbations des mammifères marins…);2;Dynamitage sous-marin (dommages sur les récifs, perturbations des mammifères marins…)
FACTEUR_INFLUENCE_VALUES;172;F05.02 - Pêche de la datte de mer (dommages sur les substrats rocheux et les communautés benthiques);2;Pêche de la datte de mer (dommages sur les substrats rocheux et les communautés benthiques)
FACTEUR_INFLUENCE_VALUES;173;F05.03 - Empoisonnements (dommages sur les poissons et la faune cotière);2;Empoisonnements (dommages sur les poissons et la faune cotière)
FACTEUR_INFLUENCE_VALUES;174;F05.04 - Braconnage (ex : tortue marine);2;Braconnage (ex : tortue marine)
FACTEUR_INFLUENCE_VALUES;175;F05.05 - Chasse (ex : mammifères marins);2;Chasse (ex : mammifères marins)
FACTEUR_INFLUENCE_VALUES;176;F05.06 - Prélèvements pour collection (ex : invertébrés marins);2;Prélèvements pour collection (ex : invertébrés marins)
FACTEUR_INFLUENCE_VALUES;177;F05.07 - Autres (par exemple filets dérivants);2;Autres (par exemple filets dérivants)
FACTEUR_INFLUENCE_VALUES;178;F06 - Autres activités de chasse, de pêche ou de collecte;1;Autres activités de chasse, de pêche ou de collecte
FACTEUR_INFLUENCE_VALUES;179;F06.01 - Site de reproduction d'oiseaux ou de gibier;2;Site de reproduction d'oiseaux ou de gibier
FACTEUR_INFLUENCE_VALUES;180;G - Intrusions et perturbations humaines;0;Intrusions et perturbations humaines
FACTEUR_INFLUENCE_VALUES;181;G01 - Sports de plein air et activités de loisirs et récréatives;1;Sports de plein air et activités de loisirs et récréatives
FACTEUR_INFLUENCE_VALUES;182;G01.01 - Sports nautiques;2;Sports nautiques
FACTEUR_INFLUENCE_VALUES;183;G01.99 - Zone de mouillage;2;Zone de mouillage
FACTEUR_INFLUENCE_VALUES;184;G01.02 - Randonnée, équitation et véhicules non-motorisés;2;Randonnée, équitation et véhicules non-motorisés
FACTEUR_INFLUENCE_VALUES;185;G01.03 - Véhicules motorisés;2;Véhicules motorisés
FACTEUR_INFLUENCE_VALUES;186;G01.04 - Alpinisme, escalade, spéléologie;2;Alpinisme, escalade, spéléologie
FACTEUR_INFLUENCE_VALUES;187;G01.05 - Vol-à-voile, delta-plane, parapente, ballon;2;Vol-à-voile, delta-plane, parapente, ballon
FACTEUR_INFLUENCE_VALUES;188;G01.06 - Ski, ski hors-piste;2;Ski, ski hors-piste
FACTEUR_INFLUENCE_VALUES;189;G01.07 - Plongée avec bouteilles, plongée en apnée (ex : perturbation des phoques et des zones cotières de reproduction des oiseaux);2;Plongée avec bouteilles, plongée en apnée (ex : perturbation des phoques et des zones cotières de reproduction des oiseaux)
FACTEUR_INFLUENCE_VALUES;192;G01.08 - Autres activités de plein air et de loisirs;2;Autres activités de plein air et de loisirs
FACTEUR_INFLUENCE_VALUES;193;G02 - Structures de sports et de loisirs;1;Structures de sports et de loisirs
FACTEUR_INFLUENCE_VALUES;194;G02.01 - Terrain de golf;2;Terrain de golf
FACTEUR_INFLUENCE_VALUES;195;G02.02 - Station de ski;2;Station de ski
FACTEUR_INFLUENCE_VALUES;196;G02.03 - Stade;2;Stade
FACTEUR_INFLUENCE_VALUES;197;G02.04 - Circuit, piste;2;Circuit, piste
FACTEUR_INFLUENCE_VALUES;198;G02.05 - Hippodrome;2;Hippodrome
FACTEUR_INFLUENCE_VALUES;199;G02.06 - Parc d'attraction;2;Parc d'attraction
FACTEUR_INFLUENCE_VALUES;200;G02.07 - Terrain de sport;2;Terrain de sport
FACTEUR_INFLUENCE_VALUES;201;G02.08 - Camping, caravanes;2;Camping, caravanes
FACTEUR_INFLUENCE_VALUES;202;G02.09 - Observation d'animaux sauvages;2;Observation d'animaux sauvages
FACTEUR_INFLUENCE_VALUES;203;G02.10 - Autres sports et complexes de loisirs;2;Autres sports et complexes de loisirs
FACTEUR_INFLUENCE_VALUES;205;G03 - Centres d'interprétation;1;Centres d'interprétation
FACTEUR_INFLUENCE_VALUES;206;G04 - Usage militaire et trouble civil;1;Usage militaire et trouble civil
FACTEUR_INFLUENCE_VALUES;207;G04.01 - Manœuvres militaires;2;Manœuvres militaires
FACTEUR_INFLUENCE_VALUES;208;G04.02 - Abandon des usages militaires;2;Abandon des usages militaires
FACTEUR_INFLUENCE_VALUES;209;G05 - Autres intrusions et perturbations humaines;1;Autres intrusions et perturbations humaines
FACTEUR_INFLUENCE_VALUES;210;G05.01 - Piétinement, surfréquentation;2;Piétinement, surfréquentation
FACTEUR_INFLUENCE_VALUES;211;G05.02 - Abrasion / dégradation physique des fonds marins;2;Abrasion / dégradation physique des fonds marins
FACTEUR_INFLUENCE_VALUES;212;G05.03 - Remaniements / perturbation du sous-sol marin;2;Remaniements / perturbation du sous-sol marin
FACTEUR_INFLUENCE_VALUES;213;G05.04 - Vandalisme;2;Vandalisme
FACTEUR_INFLUENCE_VALUES;214;G05.05 - Entretien intensif des jardins publics / nettoyage des plages;2;Entretien intensif des jardins publics / nettoyage des plages
FACTEUR_INFLUENCE_VALUES;215;G05.06 - Elagage, abattage pour la sécurité publique, suppression des arbres en bord de route;2;Elagage, abattage pour la sécurité publique, suppression des arbres en bord de route
FACTEUR_INFLUENCE_VALUES;216;G05.07 - Mesures de conservation manquantes ou improprement conduites;2;Mesures de conservation manquantes ou improprement conduites
FACTEUR_INFLUENCE_VALUES;217;G05.08 - Fermeture de grottes ou de galeries ;2;Fermeture de grottes ou de galeries 
FACTEUR_INFLUENCE_VALUES;218;G05.09 - Clôture, barrière;2;Clôture, barrière
FACTEUR_INFLUENCE_VALUES;219;G05.10 - Survol d'aéronefs (activités agricoles);2;Survol d'aéronefs (activités agricoles)
FACTEUR_INFLUENCE_VALUES;220;G05.11 - Mort ou blessure d'animaux par collision;2;Mort ou blessure d'animaux par collision
FACTEUR_INFLUENCE_VALUES;222;H - Pollution;0;Pollution
FACTEUR_INFLUENCE_VALUES;223;H01 - Pollution des eaux de surfaces (limniques et terrestres, marines et saumâtres);1;Pollution des eaux de surfaces (limniques et terrestres, marines et saumâtres)
FACTEUR_INFLUENCE_VALUES;224;H01.01 - Pollution des eaux de surface par des installations industrielles;2;Pollution des eaux de surface par des installations industrielles
FACTEUR_INFLUENCE_VALUES;225;H01.02 - Pollution des eaux de surface par les déversoirs d'orage;2;Pollution des eaux de surface par les déversoirs d'orage
FACTEUR_INFLUENCE_VALUES;226;H01.03 - Autres sources ponctuelles de pollution des eaux de surface;2;Autres sources ponctuelles de pollution des eaux de surface
FACTEUR_INFLUENCE_VALUES;227;H01.04 - Pollution diffuse des eaux de surface par les déversoirs d'orage ou le ruissellement urbain;2;Pollution diffuse des eaux de surface par les déversoirs d'orage ou le ruissellement urbain
FACTEUR_INFLUENCE_VALUES;228;H01.05 - Pollution diffuse des eaux de surface due aux activités agricoles ou forestières;2;Pollution diffuse des eaux de surface due aux activités agricoles ou forestières
FACTEUR_INFLUENCE_VALUES;229;H01.06 - Pollution diffuse des eaux de surface due au transport et infrastructures sans connexion aux canalisations/balayage;2;Pollution diffuse des eaux de surface due au transport et infrastructures sans connexion aux canalisations/balayage
FACTEUR_INFLUENCE_VALUES;230;H01.07 - Pollution diffuse des eaux de surface due à l'abandon de sites industriels;2;Pollution diffuse des eaux de surface due à l'abandon de sites industriels
FACTEUR_INFLUENCE_VALUES;231;H01.08 - Pollution diffuse des eaux de surface due aux eaux ménagères et eaux usées;2;Pollution diffuse des eaux de surface due aux eaux ménagères et eaux usées
FACTEUR_INFLUENCE_VALUES;234;H01.09 - Pollution des eaux de surface par d'autres sources non listées;2;Pollution des eaux de surface par d'autres sources non listées
FACTEUR_INFLUENCE_VALUES;235;H02 - Pollution des eaux souterraines (sources ponctuelles ou diffuses);1;Pollution des eaux souterraines (sources ponctuelles ou diffuses)
FACTEUR_INFLUENCE_VALUES;236;H02.01 - Pollution des eaux souterraines par les fuites d'un site contaminé;2;Pollution des eaux souterraines par les fuites d'un site contaminé
FACTEUR_INFLUENCE_VALUES;237;H02.02 - Pollution des eaux souterraines par les fuites d'un site de stockage de déchets;2;Pollution des eaux souterraines par les fuites d'un site de stockage de déchets
FACTEUR_INFLUENCE_VALUES;238;H02.03 - Pollution des eaux souterraines liée à une infrastructure d'industrie pétrolière;2;Pollution des eaux souterraines liée à une infrastructure d'industrie pétrolière
FACTEUR_INFLUENCE_VALUES;239;H02.04 - Pollution des eaux souterraines par le déversement de l'eau de mines;2;Pollution des eaux souterraines par le déversement de l'eau de mines
FACTEUR_INFLUENCE_VALUES;240;H02.05 - Pollution des eaux souterraines par infiltration (par exemple l'évacuation d'eaux contaminées par un puisard);2;Pollution des eaux souterraines par infiltration (par exemple l'évacuation d'eaux contaminées par un puisard)
FACTEUR_INFLUENCE_VALUES;241;H02.06 - Pollution diffuse des eaux souterraines due aux activités agricoles ou forestières;2;Pollution diffuse des eaux souterraines due aux activités agricoles ou forestières
FACTEUR_INFLUENCE_VALUES;242;H02.07 - Pollution diffuse des eaux souterraines due au non raccordement au tout-à-l'égout;2;Pollution diffuse des eaux souterraines due au non raccordement au tout-à-l'égout
FACTEUR_INFLUENCE_VALUES;243;H02.08 - Pollution diffuse des eaux souterraines due à l'utilisation des terres en milieu urbain;2;Pollution diffuse des eaux souterraines due à l'utilisation des terres en milieu urbain
FACTEUR_INFLUENCE_VALUES;244;H03 - Pollution des eaux marines;1;Pollution des eaux marines
FACTEUR_INFLUENCE_VALUES;245;H03.01 - Déversements pétroliers dans la mer;2;Déversements pétroliers dans la mer
FACTEUR_INFLUENCE_VALUES;246;H03.02 - Dégagement de produits chimiques toxiques à partir de matières déversées dans la mer;2;Dégagement de produits chimiques toxiques à partir de matières déversées dans la mer
FACTEUR_INFLUENCE_VALUES;247;H03.03 - Macro-pollution marine (par exemple sacs plastiques, polystyrène);2;Macro-pollution marine (par exemple sacs plastiques, polystyrène)
FACTEUR_INFLUENCE_VALUES;248;H03.03.01 - Rejets de dragage;3;Rejets de dragage
FACTEUR_INFLUENCE_VALUES;249;H04 - Pollution de l'air et polluants atmosphériques;1;Pollution de l'air et polluants atmosphériques
FACTEUR_INFLUENCE_VALUES;250;H04.01 - Pluie acide;2;Pluie acide
FACTEUR_INFLUENCE_VALUES;251;H04.02 - Dépôt d'azote atmosphérique;2;Dépôt d'azote atmosphérique
FACTEUR_INFLUENCE_VALUES;252;H04.03 - Autres pollutions de l'air;2;Autres pollutions de l'air
FACTEUR_INFLUENCE_VALUES;253;H05 - Pollution des sols et déchets solides (hors décharges);1;Pollution des sols et déchets solides (hors décharges)
FACTEUR_INFLUENCE_VALUES;254;H05.01 - Ordures ménagères et déchets solides;2;Ordures ménagères et déchets solides
FACTEUR_INFLUENCE_VALUES;255;H06 - Pollutions liées à l'énergie;1;Pollutions liées à l'énergie
FACTEUR_INFLUENCE_VALUES;256;H06.01 - Nuisance et pollution sonores;2;Nuisance et pollution sonores
FACTEUR_INFLUENCE_VALUES;257;H06.02 - Pollution lumineuse;2;Pollution lumineuse
FACTEUR_INFLUENCE_VALUES;258;H06.03 - Réchauffement des masses d'eau (pollution thermique);2;Réchauffement des masses d'eau (pollution thermique)
FACTEUR_INFLUENCE_VALUES;259;H06.04 - Modification de l'environnement électromagnétique (pollution électromagnétique);2;Modification de l'environnement électromagnétique (pollution électromagnétique)
FACTEUR_INFLUENCE_VALUES;260;H06.05 - Exploration sismique, explosions;2;Exploration sismique, explosions
FACTEUR_INFLUENCE_VALUES;261;H07 - Autres formes de pollution;1;Autres formes de pollution
FACTEUR_INFLUENCE_VALUES;262;I - Espèces invasives, autres espèces problématiques et introductions de gènes;0;Espèces invasives, autres espèces problématiques et introductions de gènes
FACTEUR_INFLUENCE_VALUES;263;I01 - Espèces exotiques envahissantes;1;Espèces exotiques envahissantes
FACTEUR_INFLUENCE_VALUES;264;I02 - Espèces autochtones problématiques;1;Espèces autochtones problématiques
FACTEUR_INFLUENCE_VALUES;265;I03 - Matériel génétique introduit, OGM;1;Matériel génétique introduit, OGM
FACTEUR_INFLUENCE_VALUES;266;I03.01 - Pollution génétique (animaux);2;Pollution génétique (animaux)
FACTEUR_INFLUENCE_VALUES;267;I03.02 - Pollution génétique (plantes);2;Pollution génétique (plantes)
FACTEUR_INFLUENCE_VALUES;268;J - Modifications de processus naturels;0;Modifications de processus naturels
FACTEUR_INFLUENCE_VALUES;269;J01 - Incendies et lutte contre les incendies;1;Incendies et lutte contre les incendies
FACTEUR_INFLUENCE_VALUES;270;J01.01 - Incendies, écobuages;2;Incendies, écobuages
FACTEUR_INFLUENCE_VALUES;271;J01.02 - Lutte contre les incendies naturels;2;Lutte contre les incendies naturels
FACTEUR_INFLUENCE_VALUES;272;J01.03 - Absence d'incendies;2;Absence d'incendies
FACTEUR_INFLUENCE_VALUES;273;J02 - Changements des conditions hydrauliques induits par l'homme;1;Changements des conditions hydrauliques induits par l'homme
FACTEUR_INFLUENCE_VALUES;274;J02.01 - Comblement et assèchement;2;Comblement et assèchement
FACTEUR_INFLUENCE_VALUES;275;J02.02 - Extraction de sédiments (vase, …);2;Extraction de sédiments (vase, …)
FACTEUR_INFLUENCE_VALUES;276;J02.03 - Canalisation et dérivation des eaux;2;Canalisation et dérivation des eaux
FACTEUR_INFLUENCE_VALUES;277;J02.04 - Modifications du régime de mise en eau;2;Modifications du régime de mise en eau
FACTEUR_INFLUENCE_VALUES;278;J02.05 - Modifications du fonctionnement hydrographique;2;Modifications du fonctionnement hydrographique
FACTEUR_INFLUENCE_VALUES;279;J02.06 - Captages des eaux de surface;2;Captages des eaux de surface
FACTEUR_INFLUENCE_VALUES;280;J02.07 - Captage des eaux souterraines;2;Captage des eaux souterraines
FACTEUR_INFLUENCE_VALUES;281;J02.08 - Elévation de la nappe phréatique / recharge artificielle;2;Elévation de la nappe phréatique / recharge artificielle
FACTEUR_INFLUENCE_VALUES;282;J02.09 - Intrusions d'eau de mer dans les eaux souterraines;2;Intrusions d'eau de mer dans les eaux souterraines
FACTEUR_INFLUENCE_VALUES;283;J02.10 - Gestion de la végétation aquatique et rivulaire pour des raisons de drainage;2;Gestion de la végétation aquatique et rivulaire pour des raisons de drainage
FACTEUR_INFLUENCE_VALUES;284;J02.11 - Modifications du taux d'envasement, déversement, dépôts de matériaux de dragage;2;Modifications du taux d'envasement, déversement, dépôts de matériaux de dragage
FACTEUR_INFLUENCE_VALUES;285;J02.12 - Endigages, remblais, plages artificielles (création ou modification de berges et de digues);2;Endigages, remblais, plages artificielles (création ou modification de berges et de digues)
FACTEUR_INFLUENCE_VALUES;286;J02.13 - Abandon de la gestion des plans d'eau;2;Abandon de la gestion des plans d'eau
FACTEUR_INFLUENCE_VALUES;287;J02.14 - Altération de la qualité de l'eau due à des changements anthropiques de salinité;2;Altération de la qualité de l'eau due à des changements anthropiques de salinité
FACTEUR_INFLUENCE_VALUES;288;J02.15 - Autres changements des conditions hydrauliques induits par l'homme;2;Autres changements des conditions hydrauliques induits par l'homme
FACTEUR_INFLUENCE_VALUES;289;J02.99 - Mise en eau, submersion, création de plan d'eau;2;Mise en eau, submersion, création de plan d'eau
FACTEUR_INFLUENCE_VALUES;294;J03 - Autres modifications des écosystèmes;1;Autres modifications des écosystèmes
FACTEUR_INFLUENCE_VALUES;295;J03.01 - Réduction ou perte de caractéristiques d'un habitat;2;Réduction ou perte de caractéristiques d'un habitat
FACTEUR_INFLUENCE_VALUES;296;J03.02 - Réduction de la connectivité de l'habitat par une action anthropique (fragmentation);2;Réduction de la connectivité de l'habitat par une action anthropique (fragmentation)
FACTEUR_INFLUENCE_VALUES;297;J03.03 - Absence d'érosion;2;Absence d'érosion
FACTEUR_INFLUENCE_VALUES;298;J03.04 - Destruction liée à la recherche (industrielle) appliquée;2;Destruction liée à la recherche (industrielle) appliquée
FACTEUR_INFLUENCE_VALUES;299;J03.99 - Etrépage;2;Etrépage
FACTEUR_INFLUENCE_VALUES;300;K - Processus naturels biotiques et abiotiques (hors catastrophes);0;Processus naturels biotiques et abiotiques (hors catastrophes)
FACTEUR_INFLUENCE_VALUES;301;K01 - Processus naturel abiotiques (lents);1;Processus naturel abiotiques (lents)
FACTEUR_INFLUENCE_VALUES;302;K01.01 - Erosion;2;Erosion
FACTEUR_INFLUENCE_VALUES;303;K01.02 - Envasement;2;Envasement
FACTEUR_INFLUENCE_VALUES;304;K01.03 - Assèchement;2;Assèchement
FACTEUR_INFLUENCE_VALUES;305;K01.04 - Submersion;2;Submersion
FACTEUR_INFLUENCE_VALUES;306;K01.05 - Salinisation des sols;2;Salinisation des sols
FACTEUR_INFLUENCE_VALUES;307;K02 - Evolution biocénotique, succession végétale;1;Evolution biocénotique, succession végétale
FACTEUR_INFLUENCE_VALUES;308;K02.01 - Modification de la composition spécifique (succession, fermeture du milieu);2;Modification de la composition spécifique (succession, fermeture du milieu)
FACTEUR_INFLUENCE_VALUES;309;K02.02 - Accumulation de matière organique;2;Accumulation de matière organique
FACTEUR_INFLUENCE_VALUES;310;K02.03 - Eutrophisation (naturelle);2;Eutrophisation (naturelle)
FACTEUR_INFLUENCE_VALUES;311;K02.04 - Acidification (naturelle);2;Acidification (naturelle)
FACTEUR_INFLUENCE_VALUES;314;K03 - Relations interspécifiques (faune);1;Relations interspécifiques (faune)
FACTEUR_INFLUENCE_VALUES;315;K03.01 - Compétition (faune);2;Compétition (faune)
FACTEUR_INFLUENCE_VALUES;316;K03.02 - Parasitisme (faune);2;Parasitisme (faune)
FACTEUR_INFLUENCE_VALUES;317;K03.03 - Introduction de maladies (pathogènes microbiens);2;Introduction de maladies (pathogènes microbiens)
FACTEUR_INFLUENCE_VALUES;318;K03.04 - Prédation;2;Prédation
FACTEUR_INFLUENCE_VALUES;319;K03.05 - Antagonisme avec des espèces introduites;2;Antagonisme avec des espèces introduites
FACTEUR_INFLUENCE_VALUES;320;K03.06 - Antagonisme avec des animaux domestiques;2;Antagonisme avec des animaux domestiques
FACTEUR_INFLUENCE_VALUES;321;K03.07 - Autres formes de compétition interspécifique (faune);2;Autres formes de compétition interspécifique (faune)
FACTEUR_INFLUENCE_VALUES;322;K04 - Relations interspécifiques (flore);1;Relations interspécifiques (flore)
FACTEUR_INFLUENCE_VALUES;323;K04.01 - Compétition (flore);2;Compétition (flore)
FACTEUR_INFLUENCE_VALUES;324;K04.02 - Parasitisme (flore);2;Parasitisme (flore)
FACTEUR_INFLUENCE_VALUES;325;K04.03 - Introduction de maladies (pathogènes microbiens);2;Introduction de maladies (pathogènes microbiens)
FACTEUR_INFLUENCE_VALUES;326;K04.04 - Manque de pollinisateurs;2;Manque de pollinisateurs
FACTEUR_INFLUENCE_VALUES;327;K04.05 - Dégâts provoqués par les herbivores (gibier inclus);2;Dégâts provoqués par les herbivores (gibier inclus)
FACTEUR_INFLUENCE_VALUES;328;K05 - Diminution de la fécondité / dépression génétique;1;Diminution de la fécondité / dépression génétique
FACTEUR_INFLUENCE_VALUES;329;K05.01 - Diminution de la fécondité / dépression génétique chez les animaux (consanguinité);2;Diminution de la fécondité / dépression génétique chez les animaux (consanguinité)
FACTEUR_INFLUENCE_VALUES;330;K05.02 - Diminution de la fécondité / dépression génétique chez les plantes (endogamie);2;Diminution de la fécondité / dépression génétique chez les plantes (endogamie)
FACTEUR_INFLUENCE_VALUES;331;K06 - Autres formes ou formes associées de compétition interspécifique (flore);1;Autres formes ou formes associées de compétition interspécifique (flore)
FACTEUR_INFLUENCE_VALUES;333;L - Evénements géologiques, catastrophes naturelles;0;Evénements géologiques, catastrophes naturelles
FACTEUR_INFLUENCE_VALUES;334;L01 - Volcanisme;1;Volcanisme
FACTEUR_INFLUENCE_VALUES;335;L02 - Raz de marée, tsunamis;1;Raz de marée, tsunamis
FACTEUR_INFLUENCE_VALUES;336;L03 - Tremblement de terre;1;Tremblement de terre
FACTEUR_INFLUENCE_VALUES;337;L04 - Avalanche;1;Avalanche
FACTEUR_INFLUENCE_VALUES;338;L05 - Eboulements, glissements de terrain;1;Eboulements, glissements de terrain
FACTEUR_INFLUENCE_VALUES;339;L06 - Effondrements souterrains;1;Effondrements souterrains
FACTEUR_INFLUENCE_VALUES;340;L07 - Tempête, cyclone;1;Tempête, cyclone
FACTEUR_INFLUENCE_VALUES;341;L08 - Inondation (processus naturels);1;Inondation (processus naturels)
FACTEUR_INFLUENCE_VALUES;342;L09 - Incendie (naturel);1;Incendie (naturel)
FACTEUR_INFLUENCE_VALUES;343;L10 - Autres catastrophes naturelles;1;Autres catastrophes naturelles
FACTEUR_INFLUENCE_VALUES;344;M - Changement climatique;0;Changement climatique
FACTEUR_INFLUENCE_VALUES;345;M01 - Modifications des conditions abiotiques;1;Modifications des conditions abiotiques
FACTEUR_INFLUENCE_VALUES;346;M01.01 - Changements de température;2;Changements de température
FACTEUR_INFLUENCE_VALUES;347;M01.02 - Sécheresses et diminution des précipitations;2;Sécheresses et diminution des précipitations
FACTEUR_INFLUENCE_VALUES;348;M01.03 - Inondations et augmentations des précipitations;2;Inondations et augmentations des précipitations
FACTEUR_INFLUENCE_VALUES;349;M01.04 - Changements de pH;2;Changements de pH
FACTEUR_INFLUENCE_VALUES;350;M01.05 - Modifications des mouvements de l'eau (mouvements limniques, marées et courants marins);2;Modifications des mouvements de l'eau (mouvements limniques, marées et courants marins)
FACTEUR_INFLUENCE_VALUES;351;M01.06 - Modifications de l'exposition aux vagues;2;Modifications de l'exposition aux vagues
FACTEUR_INFLUENCE_VALUES;352;M01.07 - Modifications du niveau de la mer;2;Modifications du niveau de la mer
FACTEUR_INFLUENCE_VALUES;353;M02 - Changements des conditions biotiques;1;Changements des conditions biotiques
FACTEUR_INFLUENCE_VALUES;354;M02.01 - Perte et altération d'habitat;2;Perte et altération d'habitat
FACTEUR_INFLUENCE_VALUES;355;M02.02 - Désynchronisation des processus;2;Désynchronisation des processus
FACTEUR_INFLUENCE_VALUES;356;M02.03 - Déclin ou extinction des espèces;2;Déclin ou extinction des espèces
FACTEUR_INFLUENCE_VALUES;357;M02.04 - Colonisation naturelle d'espèce;2;Colonisation naturelle d'espèce
FACTEUR_INFLUENCE_VALUES;358;U - Pressions ou menaces inconnues;0;Pressions ou menaces inconnues
FACTEUR_INFLUENCE_VALUES;359;X - Pas de menace ou pression;0;Pas de menace ou pression
FORME_HUMUS_VALUES;0;;0;
FORME_HUMUS_VALUES;1;Absent;0;Absent
FORME_HUMUS_VALUES;10;Mull;0;Mull
FORME_HUMUS_VALUES;11;Eumull;0;Eumull
FORME_HUMUS_VALUES;12;Mésomull;0;Mésomull
FORME_HUMUS_VALUES;13;Oligomull;0;Oligomull
FORME_HUMUS_VALUES;14;Dysmull;0;Dysmull
FORME_HUMUS_VALUES;15;Hydromull;0;Hydromull
FORME_HUMUS_VALUES;16;Peyromull;0;Peyromull
FORME_HUMUS_VALUES;17;Agri-mull;0;Agri-mull
FORME_HUMUS_VALUES;20;Moder;0;Moder
FORME_HUMUS_VALUES;21;Hémimoder;0;Hémimoder
FORME_HUMUS_VALUES;22;Eumoder;0;Eumoder
FORME_HUMUS_VALUES;23;Dysmoder;0;Dysmoder
FORME_HUMUS_VALUES;24;Hydromoder;0;Hydromoder
FORME_HUMUS_VALUES;25;Lithomoder;0;Lithomoder
FORME_HUMUS_VALUES;26;Peyromoder;0;Peyromoder
FORME_HUMUS_VALUES;27;Agri-Moder;0;Agri-Moder
FORME_HUMUS_VALUES;30;Mor;0;Mor
FORME_HUMUS_VALUES;31;Hémimor;0;Hémimor
FORME_HUMUS_VALUES;33;Hydromor;0;Hydromor
FORME_HUMUS_VALUES;34;Lithomor;0;Lithomor
FORME_HUMUS_VALUES;35;Peyromor;0;Peyromor
FORME_HUMUS_VALUES;36;Agri-Mor;0;Agri-Mor
FORME_HUMUS_VALUES;40;Amphimus;0;Amphimus
FORME_HUMUS_VALUES;41;Amphimus (amphimull);0;Amphimus (amphimull)
FORME_HUMUS_VALUES;42;Litho-amphimus (Tangel);0;Litho-amphimus (Tangel)
FORME_HUMUS_VALUES;43;Peyro-amphimus;0;Peyro-amphimus
FORME_HUMUS_VALUES;50;Anmoor;0;Anmoor
FORME_HUMUS_VALUES;60;Tourbe;0;Tourbe
FORME_RELEVE_VALUES;0;;0;
FORME_RELEVE_VALUES;1;Linéaire;0;Linéaire
FORME_RELEVE_VALUES;2;Surfacique;0;Surfacique
FREQUENCE_IMMERSION_VALUES;0;;0;
FREQUENCE_IMMERSION_VALUES;7;Absente;0;Absente
FREQUENCE_IMMERSION_VALUES;8;Indéterminée;0;Indéterminée
FREQUENCE_IMMERSION_VALUES;9;Courte (durée en semaines);0;Courte (durée en semaines)
FREQUENCE_IMMERSION_VALUES;10;Longue (durée en mois);0;Longue (durée en mois)
FREQUENCE_IMMERSION_VALUES;11;Permanente;0;Permanente
FREQUENCE_IMMERSION_VALUES;12;Inconnue;0;Inconnue
HUMIDITE_VALUES;0;;0;
HUMIDITE_VALUES;1;Xérophile;0;Xérophile
HUMIDITE_VALUES;2;Mésoxérophile;0;Mésoxérophile
HUMIDITE_VALUES;3;Mésophile;0;Mésophile
HUMIDITE_VALUES;4;Mésohygrophile;0;Mésohygrophile
HUMIDITE_VALUES;5;Hygrophile;0;Hygrophile
HUMIDITE_VALUES;6;Hydrophile;0;Hydrophile
HUMIDITE_VALUES;7;Amphibie;0;Amphibie
HUMIDITE_VALUES;8;Aquatique;0;Aquatique
INDICE_AGREGATION_VALUES;0;;0;
INDICE_AGREGATION_VALUES;1;Isolée (1);0;Isolée (1)
INDICE_AGREGATION_VALUES;2;Eclatée en fragments réduits (2);0;Eclatée en fragments réduits (2)
INDICE_AGREGATION_VALUES;3;Peu fragmentée et peu étendue (3);0;Peu fragmentée et peu étendue (3)
INDICE_AGREGATION_VALUES;4;Peu fragmentée et étendue (4);0;Peu fragmentée et étendue (4)
INDICE_AGREGATION_VALUES;5;Non fragmentée et étendue (5);0;Non fragmentée et étendue (5)
NIV_TROPHIE_VALUES;0;;0;
NIV_TROPHIE_VALUES;1;Oligotrophile;0;Oligotrophile
NIV_TROPHIE_VALUES;2;Oligomésotrophile;0;Oligomésotrophile
NIV_TROPHIE_VALUES;3;Mésotrophile;0;Mésotrophile
NIV_TROPHIE_VALUES;4;Méso-eutrophile;0;Méso-eutrophile
NIV_TROPHIE_VALUES;5;Eutrophile;0;Eutrophile
NIV_TROPHIE_VALUES;6;Dystrophe;0;Dystrophe
NIV_TROPHIE_VALUES;7;Hypertrophile;0;Hypertrophile
OMBRAGE_VALUES;0;;0;
OMBRAGE_VALUES;1;Ombre;0;Ombre
OMBRAGE_VALUES;2;Demi-ombre;0;Demi-ombre
OMBRAGE_VALUES;3;Lumière;0;Lumière
PENTE_VALUES;0;;0;
PENTE_VALUES;1;< 1°;0;< 1°
PENTE_VALUES;2;1 à 6°;0;1 à 6°
PENTE_VALUES;3;6 à 27°;0;6 à 27°
PENTE_VALUES;4;27 à 45°;0;27 à 45°
PENTE_VALUES;5;45 à 70°;0;45 à 70°
PENTE_VALUES;6;> 70°;0;> 70°
PH_SOL_VALUES;0;;0;
PH_SOL_VALUES;1;Hyperacidiphile;0;Hyperacidiphile
PH_SOL_VALUES;2;Acidiphile;0;Acidiphile
PH_SOL_VALUES;3;Acidiclinophile;0;Acidiclinophile
PH_SOL_VALUES;4;Neutrophile;0;Neutrophile
PH_SOL_VALUES;5;Basiphile;0;Basiphile
PH_SOL_VALUES;6;Hyperbasiphile;0;Hyperbasiphile
PROTOCOLE_VALUES;0;;0;
PROTOCOLE_VALUES;1;inventaire flore;1;inventaire flore
PROTOCOLE_VALUES;2;inventaire d'espèces à enjeux;1;inventaire d'espèces à enjeux
PROTOCOLE_VALUES;4;occurrence végétation;1;occurrence végétation
PROTOCOLE_VALUES;5;relevé floristique;1;relevé floristique
PROTOCOLE_VALUES;6;relevé phyto sigmatiste;1;relevé phyto sigmatiste
PROTOCOLE_VALUES;7;relevé phyto synusiale;1;relevé phyto synusiale
PROTOCOLE_VALUES;10;relevé paysager;2;relevé paysager
PROTOCOLE_VALUES;11;cartographie de site;2;cartographie de site
QUALITE_RELEVE_VALUES;0;;0;
QUALITE_RELEVE_VALUES;1;1;0;1
QUALITE_RELEVE_VALUES;2;2;0;2
QUALITE_RELEVE_VALUES;3;3;0;3
QUALITE_RELEVE_VALUES;4;4;0;4
QUALITE_RELEVE_VALUES;5;5;0;5
QUALITE_RELEVE_VALUES;6;Exhaustif (ou quasi-exhaustif);0;Exhaustif (ou quasi-exhaustif)
QUALITE_RELEVE_VALUES;7;Partiel (quelques taxons notés);0;Partiel (quelques taxons notés)
QUALITE_RELEVE_VALUES;8;Pointages ponctuels;0;Pointages ponctuels
REACTION_HCL_VALUES;0;;0;
REACTION_HCL_VALUES;1;Absente;0;Absente
REACTION_HCL_VALUES;2;Faible;0;Faible
REACTION_HCL_VALUES;3;Forte;0;Forte
RECOUVREMENT_VALUES;0;;0;
RECOUVREMENT_VALUES;2;r;0;r
RECOUVREMENT_VALUES;3;+;0;+
RECOUVREMENT_VALUES;4;1;0;1
RECOUVREMENT_VALUES;5;2;0;2
RECOUVREMENT_VALUES;6;3;0;3
RECOUVREMENT_VALUES;7;4;0;4
RECOUVREMENT_VALUES;8;5;0;5
RECOUVREMENT_VALUES;9;2a;0;2a
RECOUVREMENT_VALUES;10;2b;0;2b
ROCHE_MERE_VALUES;0;;0;
ROCHE_MERE_VALUES;1;1 - Roches carbonatées;1;Roches carbonatées
ROCHE_MERE_VALUES;11;11 - Roches calcaires;2;Roches calcaires
ROCHE_MERE_VALUES;1101;1101 - Craie;3;Craie
ROCHE_MERE_VALUES;1102;1102 - Conglomérat ou brèches calcaires;3;Conglomérat ou brèches calcaires
ROCHE_MERE_VALUES;1103;1103 - Grès calcaire;3;Grès calcaire
ROCHE_MERE_VALUES;1104;1104 - Calcaire gréseux-siliceux;3;Calcaire gréseux-siliceux
ROCHE_MERE_VALUES;1105;1105 - Calcschistes;3;Calcschistes
ROCHE_MERE_VALUES;1106;1106 - Marbre;3;Marbre
ROCHE_MERE_VALUES;1107;1107 - Calcaire dur;3;Calcaire dur
ROCHE_MERE_VALUES;1108;1108 - Calcaire marneux;3;Calcaire marneux
ROCHE_MERE_VALUES;1109;1109 - Marne;3;Marne
ROCHE_MERE_VALUES;1110;1110 - Galets calcaires;3;Galets calcaires
ROCHE_MERE_VALUES;1111;1111 - Moraine calcaire;3;Moraine calcaire
ROCHE_MERE_VALUES;1112;1112 - Arène calcaire;3;Arène calcaire
ROCHE_MERE_VALUES;1113;1113 - Sable calcaire;3;Sable calcaire
ROCHE_MERE_VALUES;1114;1114 - Limon calcaire;3;Limon calcaire
ROCHE_MERE_VALUES;12;12 - Roches dolomitiques;2;Roches dolomitiques
ROCHE_MERE_VALUES;1201;1201 - Calcaire dolomitique;3;Calcaire dolomitique
ROCHE_MERE_VALUES;1202;1202 - Dolomie;3;Dolomie
ROCHE_MERE_VALUES;1203;1203 - Sable dolomitique;3;Sable dolomitique
ROCHE_MERE_VALUES;1204;1204 - Arène dolomitique;3;Arène dolomitique
ROCHE_MERE_VALUES;2;2 - Roches non carbonatées;1;Roches non carbonatées
ROCHE_MERE_VALUES;21;21 - Roches sédimentaires acides;2;Roches sédimentaires acides
ROCHE_MERE_VALUES;2101;2101 - Gaize;3;Gaize
ROCHE_MERE_VALUES;2102;2102 - Grès siliceux;3;Grès siliceux
ROCHE_MERE_VALUES;2103;2103 - Conglomérat-brèche-poudingue;3;Conglomérat-brèche-poudingue
ROCHE_MERE_VALUES;2104;2104 - Quartzite;3;Quartzite
ROCHE_MERE_VALUES;2105;2105 - Silex / Meulière;3;Silex / Meulière
ROCHE_MERE_VALUES;2106;2106 - Galets siliceux;3;Galets siliceux
ROCHE_MERE_VALUES;2107;2107 - Moraine siliceuse;3;Moraine siliceuse
ROCHE_MERE_VALUES;2108;2108 - Arène siliceuse;3;Arène siliceuse
ROCHE_MERE_VALUES;2109;2109 - Sable siliceux;3;Sable siliceux
ROCHE_MERE_VALUES;2110;2110 - Limon siliceux;3;Limon siliceux
ROCHE_MERE_VALUES;2111;2111 - Argile siliceuse;3;Argile siliceuse
ROCHE_MERE_VALUES;22;22 - Roches plutoniques (intrusives);2;Roches plutoniques (intrusives)
ROCHE_MERE_VALUES;2201;2201 - Granitoïde;3;Granitoïde
ROCHE_MERE_VALUES;22011;22011 - Granite alcalin;4;Granite alcalin
ROCHE_MERE_VALUES;22012;22012 - Granite;4;Granite
ROCHE_MERE_VALUES;22013;22013 - Granodiorite;4;Granodiorite
ROCHE_MERE_VALUES;22024;22024 - Tonalite;4;Tonalite
ROCHE_MERE_VALUES;2203;2203 - Diorite;3;Diorite
ROCHE_MERE_VALUES;2204;2204 - Syénite;3;Syénite
ROCHE_MERE_VALUES;2205;2205 - Gabbro;3;Gabbro
ROCHE_MERE_VALUES;2206;2206 - Dolérite / Ophite;3;Dolérite / Ophite
ROCHE_MERE_VALUES;2207;2207 - Autre roche plutonique;3;Autre roche plutonique
ROCHE_MERE_VALUES;23;23 - Roches volcaniques (effusives);2;Roches volcaniques (effusives)
ROCHE_MERE_VALUES;2301;2301 - Rhyolite;3;Rhyolite
ROCHE_MERE_VALUES;2302;2302 - Trachyte;3;Trachyte
ROCHE_MERE_VALUES;2303;2303 - Phonolite;3;Phonolite
ROCHE_MERE_VALUES;2304;2304 - Andésite;3;Andésite
ROCHE_MERE_VALUES;2305;2305 - Basalte;3;Basalte
ROCHE_MERE_VALUES;2306;2306 - Scories / Pouzzolane;3;Scories / Pouzzolane
ROCHE_MERE_VALUES;2307;2307 - Autre roche volcanique;3;Autre roche volcanique
ROCHE_MERE_VALUES;24;24 - Roches métamorphiques;2;Roches métamorphiques
ROCHE_MERE_VALUES;2401;2401 - Gneiss;3;Gneiss
ROCHE_MERE_VALUES;2402;2402 - Schiste non calcaire;3;Schiste non calcaire
ROCHE_MERE_VALUES;2403;2403 - Amphibolite;3;Amphibolite
ROCHE_MERE_VALUES;2404;2404 - Autre roche métamorphique;3;Autre roche métamorphique
ROCHE_MERE_VALUES;25;25 - Roches ultrabasiques;2;Roches ultrabasiques
ROCHE_MERE_VALUES;2501;2501 - Serpentinite;3;Serpentinite
ROCHE_MERE_VALUES;2502;2502 - Péridotite (lherzolite, dunite, hartzburgite...);3;Péridotite (lherzolite, dunite, hartzburgite...)
ROCHE_MERE_VALUES;2503;2503 - Pyroxénite;3;Pyroxénite
ROCHE_MERE_VALUES;3;3 - Roches particulières;1;Roches particulières
ROCHE_MERE_VALUES;31;31 - Gypse;2;Gypse
ROCHE_MERE_VALUES;32;32 - Tourbe;2;Tourbe
ROCHE_MERE_VALUES;3201;3201 - Tourbe acide;3;Tourbe acide
ROCHE_MERE_VALUES;3202;3202 - Tourbe alcaline;3;Tourbe alcaline
ROCHE_MERE_VALUES;33;33 - Vase;2;Vase
ROCHE_MERE_VALUES;34;34 - Dépôt minier;2;Dépôt minier
SALINITE_VALUES;0;;0;
SALINITE_VALUES;1;Halophile (Eu-halophile);0;Halophile (Eu-halophile)
SALINITE_VALUES;2;Oligohalophile;0;Oligohalophile
SALINITE_VALUES;3;Glycophile;0;Glycophile
SALINITE_VALUES;4;Mésohalophile;0;Mésohalophile
STATUT_DETERMINATION_VALUES;0;;0;
STATUT_DETERMINATION_VALUES;1;-;0;-
STATUT_DETERMINATION_VALUES;2;cf.;0;cf.
STATUT_DETERMINATION_VALUES;6;sensu lato;0;sensu lato
STATUT_DETERMINATION_VALUES;7;sensu stricto;0;sensu stricto
STATUT_DETERMINATION_VALUES;8;!;0;!
STATUT_DETERMINATION_VALUES;9;aff.;0;aff.
STATUT_PHENOLOGIQUE_VALUES;0;;0;
STATUT_PHENOLOGIQUE_VALUES;10;Stade végétatif;0;Stade végétatif
STATUT_PHENOLOGIQUE_VALUES;11;Germination;0;Germination
STATUT_PHENOLOGIQUE_VALUES;12;Plantule;0;Plantule
STATUT_PHENOLOGIQUE_VALUES;13;Juvénile;0;Juvénile
STATUT_PHENOLOGIQUE_VALUES;14;Adulte;0;Adulte
STATUT_PHENOLOGIQUE_VALUES;20;Floraison;0;Floraison
STATUT_PHENOLOGIQUE_VALUES;21;Bouton;0;Bouton
STATUT_PHENOLOGIQUE_VALUES;22;Débourrant;0;Débourrant
STATUT_PHENOLOGIQUE_VALUES;23;Début de floraison;0;Début de floraison
STATUT_PHENOLOGIQUE_VALUES;24;Pleine floraison;0;Pleine floraison
STATUT_PHENOLOGIQUE_VALUES;25;Fin de floraison;0;Fin de floraison
STATUT_PHENOLOGIQUE_VALUES;30;Fructification;0;Fructification
STATUT_PHENOLOGIQUE_VALUES;31;Début de fructification;0;Début de fructification
STATUT_PHENOLOGIQUE_VALUES;32;Pleine fructification;0;Pleine fructification
STATUT_PHENOLOGIQUE_VALUES;33;Fin de fructification;0;Fin de fructification
STATUT_PHENOLOGIQUE_VALUES;40;Sénescence;0;Sénescence
STATUT_PHENOLOGIQUE_VALUES;41;Dissémination des graines;0;Dissémination des graines
STATUT_PHENOLOGIQUE_VALUES;42;Mort;0;Mort
STATUT_SPONTANEITE_VALUES;0;;0;
STATUT_SPONTANEITE_VALUES;1;Non renseigné;0;Non renseigné
STATUT_SPONTANEITE_VALUES;2;Spontané [W];0;Spontané [W]
STATUT_SPONTANEITE_VALUES;3;Subspontané [WQ];0;Subspontané [WQ]
STATUT_SPONTANEITE_VALUES;4;Cultivé (planté ou semé) [Q];0;Cultivé (planté ou semé) [Q]
STATUT_SPONTANEITE_VALUES;5;Indéterminé ou incertain;0;Indéterminé ou incertain
STATUT_SPONTANEITE_VALUES;109;Echoué (individu retrouvé échoué) - Obsolète, ne plus utiliser !;0;Echoué (individu retrouvé échoué) - Obsolète, ne plus utiliser !
STRATES_VALUES;0;;0;
STRATES_VALUES;1;(A) Strate arborée;0;Strate arborée
STRATES_VALUES;4;(a) Strate arbustive;0;Strate arbustive
STRATES_VALUES;7;(h) Strate herbacée;0;Strate herbacée
STRATES_VALUES;8;(l) Recouvrement lichénique;0;Recouvrement lichénique
STRATES_VALUES;12;(b) Recouvrement bryophytique;0;Recouvrement bryophytique
STRATES_VALUES;13;(alg) Recouvrement algal;0;Recouvrement algal
STRATES_VALUES;14;(NR) Strate non renseignée/déterminée;0;Strate non renseignée/déterminée
SUPPORT_VALUES;0;;0;
SUPPORT_VALUES;1;Rochers non calcaires;0;Rochers non calcaires
SUPPORT_VALUES;2;Calcaire;0;Calcaire
SUPPORT_VALUES;3;Eau;0;Eau
SUPPORT_VALUES;4;Sol;0;Sol
SUPPORT_VALUES;5;Tourbe;0;Tourbe
SUPPORT_VALUES;6;Écorce;0;Écorce
SUPPORT_VALUES;7;Bois mort;0;Bois mort
SUPPORT_VALUES;8;Feuilles et tiges vivantes (de plantes vasculaires);0;Feuilles et tiges vivantes (de plantes vasculaires)
SUPPORT_VALUES;9;Lichens;0;Lichens
SUPPORT_VALUES;10;Mousses;0;Mousses
SUPPORT_VALUES;11;Substrat Artificiel;0;Substrat Artificiel
SUPPORT_VALUES;12;Divers (autres cas);0;Divers (autres cas)
TAILLE_COURS_EAU_VALUES;0;;0;
TAILLE_COURS_EAU_VALUES;1;Suintement (dont source);0;Suintement (dont source)
TAILLE_COURS_EAU_VALUES;2;Ruisseau;0;Ruisseau
TAILLE_COURS_EAU_VALUES;3;Petite rivière;0;Petite rivière
TAILLE_COURS_EAU_VALUES;4;Grande rivière;0;Grande rivière
TAILLE_COURS_EAU_VALUES;5;Plan d'eau;0;Plan d'eau
TECHNIQUE_COLLECTE_VALUES;0;;0;
TECHNIQUE_COLLECTE_VALUES;2;Observation directe terrestre diurne;0;Observation directe terrestre diurne
TECHNIQUE_COLLECTE_VALUES;17;Observation à distance;0;Observation à distance
TECHNIQUE_COLLECTE_VALUES;19;Extrapolation;0;Extrapolation
TECHNIQUE_COLLECTE_VALUES;28;Vidéo et photographies;0;Vidéo et photographies
TECHNIQUE_COLLECTE_VALUES;30;Caméra tractée ou téléguidée;0;Caméra tractée ou téléguidée
TECHNIQUE_COLLECTE_VALUES;32;Observation photographique aérienne, prise de vue aérienne, suivie d'une photointerprétation;0;Observation photographique aérienne, prise de vue aérienne, suivie d'une photointerprétation
TECHNIQUE_COLLECTE_VALUES;33;Observation photographique terrestre suivie d'une photointerprétation;0;Observation photographique terrestre suivie d'une photointerprétation
TECHNIQUE_COLLECTE_VALUES;34;Autre, à préciser;0;Autre, à préciser
TEXTURE_SOL_VALUES;0;;0;
TEXTURE_SOL_VALUES;11;Argileuse;0;Argileuse
TEXTURE_SOL_VALUES;12;Limoneuse;0;Limoneuse
TEXTURE_SOL_VALUES;13;Sableuse;0;Sableuse
THERMIE_VALUES;0;;0;
THERMIE_VALUES;1;Cryophile;0;Cryophile
THERMIE_VALUES;2;Mésocryophile;0;Mésocryophile
THERMIE_VALUES;3;Psychrophile;0;Psychrophile
THERMIE_VALUES;4;Mésothermophile;0;Mésothermophile
THERMIE_VALUES;5;Thermoclinophile;0;Thermoclinophile
THERMIE_VALUES;6;Thermophile;0;Thermophile
TOPOGRAPHIE_VALUES;0;;0;
TOPOGRAPHIE_VALUES;1;Terrain plat;0;Terrain plat
TOPOGRAPHIE_VALUES;2;Sommet vif;0;Sommet vif
TOPOGRAPHIE_VALUES;3;Escarpement;0;Escarpement
TOPOGRAPHIE_VALUES;4;Sommet arrondi;0;Sommet arrondi
TOPOGRAPHIE_VALUES;9;Dépression ouverte (vallée, vallon, combe, etc.);0;Dépression ouverte (vallée, vallon, combe, etc.)
TOPOGRAPHIE_VALUES;10;Dépression fermée (cuvette, mare, doline, etc.);0;Dépression fermée (cuvette, mare, doline, etc.)
TOPOGRAPHIE_VALUES;11;Replat de versant;0;Replat de versant
TOPOGRAPHIE_VALUES;12;Haut de versant;0;Haut de versant
TOPOGRAPHIE_VALUES;13;Milieu de versant;0;Milieu de versant
TOPOGRAPHIE_VALUES;14;Bas de versant;0;Bas de versant
TOPOGRAPHIE_VALUES;15;Situation topographique hétérogène;0;Situation topographique hétérogène
TOPOGRAPHIE_VALUES;18;Paroi naturelle;0;Paroi naturelle
TOPOGRAPHIE_VALUES;19;Paroi artificielle;0;Paroi artificielle
TOPOGRAPHIE_VALUES;23;Pied de paroi;0;Pied de paroi
TYPE_BIO_VALUES;0;;0;
TYPE_BIO_VALUES;9;Hydrophytaie;0;Hydrophytaie
TYPE_BIO_VALUES;10;Thérophytaie;0;Thérophytaie
TYPE_BIO_VALUES;11;Géophytaie;0;Géophytaie
TYPE_BIO_VALUES;12;Hémicryptophytaie;0;Hémicryptophytaie
TYPE_BIO_VALUES;13;Hélophytaie;0;Hélophytaie
TYPE_BIO_VALUES;14;Chaméphytaie;0;Chaméphytaie
TYPE_BIO_VALUES;15;Phanérophytaie;0;Phanérophytaie
TYPE_BIO_VALUES;16;Epiphytaie;0;Epiphytaie
TYPE_BIO_VALUES;17;Nanophanérophytaie;0;Nanophanérophytaie
TYPE_DETERMINATION_VALUES;0;;0;
TYPE_DETERMINATION_VALUES;1;Attribué terrain;0;Attribué terrain
TYPE_DETERMINATION_VALUES;2;Expertise a posteriori;0;Expertise a posteriori
TYPE_DETERMINATION_VALUES;3;Correspondance typologique;0;Correspondance typologique
TYPE_FORME_VALUES;0;;0;
TYPE_FORME_VALUES;1;O - Grand spatial;0;Grand spatial
TYPE_FORME_VALUES;2;o - Petit spatial;0;Petit spatial
TYPE_FORME_VALUES;3;/ - Linéaire;0;Linéaire
TYPE_FORME_VALUES;4;% - Spatio-linéaire;0;Spatio-linéaire
TYPE_FORME_VALUES;5;-/- - Linéaire disjointe;0;Linéaire disjointe
TYPE_FORME_VALUES;6;.:. - mosaïque ou pluriponctuel;0;mosaïque ou pluriponctuel
TYPE_FORME_VALUES;7;. - Ponctuel;0;Ponctuel
TYPE_FORME_VALUES;8;Surfaçique;0;Surfaçique
TYPE_PHYSIO_VALUES;0;;0;
TYPE_PHYSIO_VALUES;13;Forêt;0;Forêt
TYPE_PHYSIO_VALUES;14;Fourré / Pré-Manteau;0;Fourré / Pré-Manteau
TYPE_PHYSIO_VALUES;15;Lande;0;Lande
TYPE_PHYSIO_VALUES;16;Ourlet / Mégaphorbiaie;0;Ourlet / Mégaphorbiaie
TYPE_PHYSIO_VALUES;17;Cariçaie / Roselière;0;Cariçaie / Roselière
TYPE_PHYSIO_VALUES;18;Végétation riveraine basse;0;Végétation riveraine basse
TYPE_PHYSIO_VALUES;19;Prairie;0;Prairie
TYPE_PHYSIO_VALUES;20;Pelouse;0;Pelouse
TYPE_PHYSIO_VALUES;22;Herbier;0;Herbier
TYPE_PHYSIO_VALUES;23;Végétation rupicole;0;Végétation rupicole
TYPE_PHYSIO_VALUES;24;Friche herbacée;0;Friche herbacée
TYPE_PHYSIO_VALUES;30;Végétation adventice;0;Végétation adventice
TYPE_PHYSIO_VALUES;31;Prairie pâturée;0;Prairie pâturée
TYPE_PHYSIO_VALUES;32;Prairie fauchée;0;Prairie fauchée
TYPE_PHYSIO_VALUES;131;Forêt pionnière;0;Forêt pionnière
TYPE_PHYSIO_VALUES;190;Microphorbiaie;0;Microphorbiaie
TYPE_REL_VALUES;0;;0;
TYPE_REL_VALUES;1;Relevé Flore/Habitat(s);0;Relevé Flore/Habitat(s)
TYPE_REL_VALUES;2;Relevé Habitat(s);0;Relevé Habitat(s)
TYPE_SOL_VALUES;0;;0;
TYPE_SOL_VALUES;39;Alocrisols;0;Alocrisols
TYPE_SOL_VALUES;40;Andosols;0;Andosols
TYPE_SOL_VALUES;41;Anthroposols;0;Anthroposols
TYPE_SOL_VALUES;42;Arénosols;0;Arénosols
TYPE_SOL_VALUES;43;Brunisols;0;Brunisols
TYPE_SOL_VALUES;44;Solums dominés par le calcium et/ou Magnésium;0;Solums dominés par le calcium et/ou Magnésium
TYPE_SOL_VALUES;45;Chernosols;0;Chernosols
TYPE_SOL_VALUES;46;Colluviosols;0;Colluviosols
TYPE_SOL_VALUES;47;Cryosols;0;Cryosols
TYPE_SOL_VALUES;48;Ferrallitosols;0;Ferrallitosols
TYPE_SOL_VALUES;49;Oxydisols;0;Oxydisols
TYPE_SOL_VALUES;50;Ferruginosols;0;Ferruginosols
TYPE_SOL_VALUES;51;Fersialsols;0;Fersialsols
TYPE_SOL_VALUES;52;Fluviosols;0;Fluviosols
TYPE_SOL_VALUES;53;Grisols;0;Grisols
TYPE_SOL_VALUES;54;Gypsosols;0;Gypsosols
TYPE_SOL_VALUES;55;Histosols;0;Histosols
TYPE_SOL_VALUES;56;Leptismectisols;0;Leptismectisols
TYPE_SOL_VALUES;57;Lithosols;0;Lithosols
TYPE_SOL_VALUES;58;Luvisols;0;Luvisols
TYPE_SOL_VALUES;59;Nitosols;0;Nitosols
TYPE_SOL_VALUES;60;Organosols;0;Organosols
TYPE_SOL_VALUES;61;Pélosols;0;Pélosols
TYPE_SOL_VALUES;62;Peyrosols;0;Peyrosols
TYPE_SOL_VALUES;63;Phaesols;0;Phaesols
TYPE_SOL_VALUES;64;Planosols;0;Planosols
TYPE_SOL_VALUES;65;Podzosols;0;Podzosols
TYPE_SOL_VALUES;66;Rankosols;0;Rankosols
TYPE_SOL_VALUES;67;Réductisols;0;Réductisols
TYPE_SOL_VALUES;68;Rédoxisols;0;Rédoxisols
TYPE_SOL_VALUES;69;Régosols;0;Régosols
TYPE_SOL_VALUES;70;Salisols;0;Salisols
TYPE_SOL_VALUES;71;Sodisols;0;Sodisols
TYPE_SOL_VALUES;72;Thalassosols;0;Thalassosols
TYPE_SOL_VALUES;73;Thiosols;0;Thiosols
TYPE_SOL_VALUES;74;Sulfatosols;0;Sulfatosols
TYPE_SOL_VALUES;75;Veracrisols;0;Veracrisols
TYPE_SOL_VALUES;76;Vertisols;0;Vertisols
TYPICITE_VALUES;0;;0;
TYPICITE_VALUES;5;Bonne;0;Bonne
TYPICITE_VALUES;6;Moyenne;0;Moyenne
TYPICITE_VALUES;7;Mauvaise;0;Mauvaise
TYPICITE_VALUES;8;Non évaluée;0;Non évaluée
UNITE_VEGE_VALUES;0;;0;
UNITE_VEGE_VALUES;1;Unité non complexe;0;Unité non complexe
UNITE_VEGE_VALUES;2;Mosaïque de type non défini;0;Mosaïque de type non défini
UNITE_VEGE_VALUES;3;Mosaïque temporelle;0;Mosaïque temporelle
UNITE_VEGE_VALUES;4;Mosaïque spatiale;0;Mosaïque spatiale
UNITE_VEGE_VALUES;5;Unité mixte;0;Unité mixte
VITESSE_EAU_VALUES;0;;0;
VITESSE_EAU_VALUES;1;Stagnante;0;Stagnante
VITESSE_EAU_VALUES;2;Peu courante;0;Peu courante
VITESSE_EAU_VALUES;3;Courante;0;Courante
VITESSE_EAU_VALUES;4;Torrentielle;0;Torrentielle
