id;prenom;nom;email;active
"7";"Jean-Claude";"ABADIE";"j.abadie@cbnsa.fr";"1"
"2953";"Florence";"AGASSE-YVER";"f.agasse-yver@eec-conseil.fr";"1"
"24056";"Pierre";"AGOU";"pagou@biotope.fr";"1"
"22943";"Pierre";"AGOU";"pierre.agou@free.fr";"1"
"25009";"Alexandre";"ALAVOINE";"alexandre.alavoine@cen-bourgogne.fr";"1"
"25537";"Alexandre";"ALAVOINE";"alexandre.alavoine1@gmail.com";"1"
"24019";"Matthias";"ALLOUX";"matthias.alloux@bassin-armancon.fr";"1"
"5418";"Pascal";"AMBLARD";"pascal.amblard@mnhn.fr";"1"
"24157";"Justine";"AMIOTTE-SUCHET";"justine.amiotte-suchet@cbnfc.org";"1"
"23988";"Dominique";"AMON-MOREAU";"dominique.amon-moreau@onf.fr";"1"
"26719";"camille";"ANCEAU";"camille.anceau@ecosphere.fr";"1"
"24271";"Max";"ANDRé";"max.andre@wanadoo.fr";"1"
"5576";"Frédéric";"ANDRIEU";"fred_andrieu@outlook.fr";"1"
"1246";"Marion";"ANQUEZ";"anquezmarion24@gmail.com";"1"
"20929";"Tristan";"AP RHEINALLT";"tristan.aprh@gmail.com";"1"
"24011";"Paul";"ARCHAMBAUX";"archambaux.paul@gmail.com";"1"
"24979";"Antoni";"ARDOUIN";"antoni.ardouin@cen-bourgogne.fr";"1"
"1283";"Thomas";"ARMAND";"thomas_armand@yahoo.fr";"1"
"10670";"Gérard";"ARNAL";"arnal.botanique@orange.fr";"1"
"20866";"Maxence";"ARNAUD";"marnaud@biotope.fr";"1"
"26736";"Lucas";"AUGER";"lucas.auger2@gmail.com";"1"
"10058";"Damien";"AVRIL";"damien.avril@sepant.fr";"1"
"20790";"Mehdi";"AZDOUD";"m.azdoud@bordeaux-metropole.fr";"1"
"5424";"Laurent";"AZUELOS";"laurent.azuelos@mnhn.fr";"1"
"5445";"Amara";"AZZAZ";"amara.azzaz@mnhn.fr";"1"
"9997";"Christophe";"BACH";"christophe.bach@iea45.fr";"1"
"26716";"Christophe";"BACH";"christophe.bach4@free.fr";"1"
"9919";"Renaud";"BAETA";"renaud.baeta@anepe-caudalis.fr";"1"
"25728";"Arnaud";"BAK";"a.bak@parc-naturel-chevreuse.fr";"1"
"22599";"Agnès";"BALDZUHN";"ninidemont@hotmail.com";"1"
"24004";"François";"BALERE";"fbalere@groupe-ect.com";"1"
"5348";"Sandy";"BARBERIS";"san_nloup@yahoo.fr";"1"
"5969";"Cécile";"BARBIER";"cecile.barbier@cen-bourgogne.fr";"1"
"26728";"dominique";"BARD";"dominique.bard@ofb.gouv.fr";"1"
"5277";"Olivier";"BARDET";"olivier.bardet@mnhn.fr";"1"
"5282";"Philippe";"BARDIN";"philippe.bardin@mnhn.fr";"1"
"24265";"Maryline";"BARRE";"mbarre@ville-dijon.fr";"1"
"5289";"Pascal";"BASSET";"pfmc.basset@wanadoo.fr";"1"
"23503";"Magalie";"BAU";"bau.magalie@gmail.com";"1"
"24304";"Maxime";"BAUDIN";"maxime.baudin@i-carre.net";"1"
"25650";"Lucie";"BAURET";"l.bauret@tereo-eren.fr";"1"
"24007";"Cécile";"BAYLE";"cecile.bayle@ecoter.fr";"1"
"24211";"David";"BEAUDOIN";"beaudoin-david@orange.fr";"1"
"4704";"Maxime";"BEAUJEON";"m.beaujeon@envolis.fr";"1"
"8949";"David";"BÉCU";"db.cpnca@wanadoo.fr";"1"
"24376";"Cyril";"BELLANGER";"bellanger.cyril@hotmail.fr";"1"
"5411";"Sylvain";"BELLENFANT";"sbellenfant@mnhn.fr";"1"
"3855";"Philippe";"BELLIN";"pmcbellin@yahoo.fr";"1"
"26784";"BEATRICE";"BERANGER";"technicien@siab3a.fr";"1"
"7897";"Christian";"BERGEONNEAU";"bergeonneau.christian@orange.fr";"1"
"5997";"Alain";"BERGER";"alain.berger@wanadoo.fr";"1"
"5413";"Romain";"BERGER";"romain.berger@mnhn.fr";"1"
"2086";"Christophe";"BERGÈS";"christophe.berges@cbnpmp.fr";"1"
"22991";"christophe";"BERNIER";"christophe.bernier@mnhn.fr";"1"
"24971";"Emmanuel";"BERROD";"emmanuel.berrod@departement77.fr";"1"
"5414";"Luc";"BERROD";"luc.berrod@mnhn.fr";"1"
"24046";"Julien";"BERRON";"jberron.b2m@gmail.com";"1"
"20865";"Adrien";"BERTONI";"abertoni@cen-champagne-ardenne.org";"1"
"2367";"Ophélie";"BESLIN";"ophelie.beslin@mnhn.fr";"1"
"25799";"Pierre";"BESNARD";"pierrebesnard7789@hotmail.fr";"1"
"5487";"Benjamin";"BESSE";"benjamin.besse@lpo.fr";"1"
"9658";"Sabine";"BEUTIN";"sbeutin37@hotmail.com";"1"
"25803";"Damien";"BIGOT";"damien.bigot@ofb.gouv.fr";"1"
"26740";"Florent";"BILLARD";"florent.billard@ofb.gouv.fr";"1"
"5422";"Guillaume";"BILLOD";"guillaume.billod@mnhn.fr";"1"
"20737";"Michel";"BILLOD";"michel.billod@hotmail.fr";"1"
"23562";"David";"BINVEL";"dbinvel@cd-essonne.fr";"1"
"8";"Romain";"BISSOT";"r.bissot@cbnsa.fr";"1"
"8766";"Arnaud";"BIZOT";"arnaud.bizot@wanadoo.fr";"1"
"22546";"Benoit";"BOCK";"b.bock@orange.fr";"1"
"20876";"Christophe";"BODIN";"ch.bodin@laposte.net";"1"
"1230";"Sarah";"BOILLET";"sarah.boillet@riviere-environnement.fr";"1"
"4762";"Valérie";"BOIREL";"valerie.boirel@developpement-durable.gouv.fr";"1"
"25711";"Julie";"BORNES";"julie.brs@laposte.net";"1"
"24268";"David";"BOSHART";"david.boshart@nievre.gouv.fr";"1"
"5575";"Sylvain";"BOST";"tchoub@laposte.net";"1"
"4839";"François";"BOTTÉ";"f.botte@yahoo.fr";"1"
"20730";"Hervé";"BOUARD";"hb.bouard@orange.fr";"1"
"23736";"Estelle";"BOUCLY";"e.boucly@gmail.com";"1"
"22590";"Nicolas";"BOUDEREAUX";"n.boudereaux@cpie-bouclesdelamarne.fr";"1"
"2370";"Michel";"BOUDRIE";"michelboudrie@orange.fr";"1"
"23971";"Sandra";"BOUILLY";"sandra.bouilly@departement18.fr";"1"
"24306";"Léo";"BOULAY";"leo.boulay@developpement-durable.gouv.fr";"1"
"25572";"Patrice";"BOULONGNE";"patrice.boulongne@parcdumorvan.org";"1"
"23449";"Eric";"BOUQUET";"eric.bouquet@ofb.gouv.fr";"1"
"20890";"Fabienne";"BOURDIL";"fabienne.bourdil@sfr.fr";"1"
"24980";"Laurence";"BOURDIN";"laurence.bourdin@departement41.fr";"1"
"12635";"Renaud";"BOURGEAIS";"renaud.bourgeais@charente-maritime.fr";"1"
"23565";"Alexis";"BOURGEOIS";"a.bourgeois@parc-montagnedereims.fr";"1"
"23579";"Fanny";"BOURGOIN";"f.bourgoin@parc-montagnedereims.fr";"1"
"12494";"Vincent";"BOURGUIGNON";"V.BOURGUIGNON@parcduvexin.fr";"1"
"5759";"Thibault";"BOURNOUVILLE";"thibault.bournouville@mnhn.fr";"1"
"5578";"Landry";"BOUSSAC";"landry.boussac@orange.fr";"1"
"26718";"Landry";"BOUSSAC";"landry.boussac@ofb.gouv.fr";"1"
"25661";"Jérôme";"BOUTET";"jerome.boutet.25@gmail.com";"1"
"25548";"Laetitia";"BOUTET-BERRY";"laetitia.boutet-berry@ofb.gouv.fr";"1"
"9578";"Danielle";"BOUYAHIA";"danielle.bouyahia@gmail.com";"1"
"24270";"Jaouad";"BOUYAMARDEN";"jaouad.bouyamarden@outlook.fr";"1"
"3537";"Vincent";"BOUYER";"vincent.bouyer@ece-environnement.com";"1"
"1954";"Agnès";"BOYÉ";"agnes.boye@poitou-charentes-nature.asso.fr";"1"
"5538";"Igor";"BOYER";"igorboyer.ib@gmail.com";"1"
"3314";"Pierre";"BOYER";"pierre.boyer.nature@gmail.com";"1"
"17027";"Mathis";"BRASSELET";"mathis.brasselet@hotmail.fr";"1"
"3633";"Jean-Emmanuel";"BRASSEUR";"envol.environnement@gmail.com";"1"
"17187";"Morgane";"BREGAINT";"morganebregaint@hotmail.fr";"1"
"5357";"Héléna";"BRESSAUD";"helena.bressaud@mnhn.fr";"1"
"32";"William";"BRONDEL";"bill.brondel@gmail.com";"1"
"22953";"Yohann";"BROUILLARD";"ybrouillard@orange.fr";"1"
"1217";"Eric";"BRUGEL";"isaeric.brugel@gmail.com";"1"
"25780";"Magdalena";"BRUGGER";"magdalena.brugger@shna.fr";"1"
"17081";"Marc";"BRUNEAU";"marc.bruneau@dsne.org";"1"
"20778";"Elodie";"BRUNET";"elodie.brunet@ecosphere.fr";"1"
"369";"Yann";"BRUNET";"yann_brunet77@hotmail.com";"1"
"24070";"AUDREY";"BULTE";"a.bulte@parc-gatinais-francais.fr";"1"
"25668";"Yves";"BUTIN";"butin.yves@orange.fr";"1"
"24988";"Mathilde";"BYLICKI";"mathilde.bylicki@cen-bourgogne.fr";"1"
"25653";"Valentin";"CADET";"cadet.valentin@gmail.com";"1"
"24057";"Bastien";"CADIOU";"basca@live.fr";"1"
"1988";"Jocelyne";"CAMBECÈDES";"jocelyne.cambecedes@cbnpmp.fr";"1"
"5069";"Silvère";"CAMPONOVO";"silvere.camponovo@mnhn.fr";"1"
"1318";"Michel";"CANTAGREL";"m_cantagrel@hotmail.com";"1"
"7804";"Evelyne";"CANTONE";"evelyne.cantone@wanadoo.fr";"1"
"9772";"Charlène";"CARON";"ccaron@biotope.fr";"1"
"22079";"Nicolas";"CARON";"nicolas.caron03@gmail.com";"1"
"1322";"Marc";"CARRIÈRE";"les-snats@wanadoo.fr";"1"
"24950";"Ambre";"CARTIER";"cartier.a@fdc10.org";"1"
"25696";"Denis";"CARTIER";"d.cartier@cbnal.fr";"1"
"17101";"Paul";"CASSAGNES";"paul.cassagnes@ingerop.com";"1"
"7441";"Thierry";"CASTEL";"cenathi7@gmail.com";"1"
"21120";"Thierry";"CASTEL";"lesjardinsdeculetre@gmail.com";"1"
"24372";"Chloé";"CATEYSSON";"chloe.cateysson@ingerop.com";"1"
"22900";"Christophe";"CAUGANT";"ccaugant@departement-touraine.fr";"1"
"4275";"Nathalie";"CAULIEZ";"nathalie.cauliez@ecogee.fr";"1"
"5275";"Gaël";"CAUSSE";"gael.causse@mnhn.fr";"1"
"23493";"Sylvie";"CAUX";"sylvie.caux@indrenature.net";"1"
"16874";"SI";"CBNBP";"cbnbp-si@mnhn.fr";"1"
"2593";"Jaoua";"CELLE";"jaoua.celle@cbnmc.fr";"1"
"20807";"Colette";"CENSE";"colette.cense@orange.fr";"1"
"12507";"Céline";"CERVEK";"celine.cervek@centre.chambagri.fr";"1"
"22729";"Delphine";"CHABROL";"abaule@alisea-environnement.fr";"1"
"23757";"Delphine";"CHABROL";"dchabrol@alisea-environnement.fr";"1"
"1676";"Laurent";"CHABROL";"laurent.chabrol@cbnmc.fr";"1"
"5037";"Alexis";"CHABROUILLAUD";"alexis.chabrouillaud@ne17.fr";"1"
"23990";"Tancrède";"CHANNELLIèRE";"tancrede1@lilo.org";"1"
"17083";"Yann";"CHAPELAIN";"y.chapelain@cen-na.org";"1"
"23722";"Paul";"CHARONNAT";"paul.charonnat.sabi36@gmail.com";"1"
"20745";"Elodie";"CHATEL";"e.chatel@eln28.org";"1"
"23994";"Carla";"CHATELLARD";"carlachatellard04@gmail.com";"1"
"22440";"Myrtille";"CHATENIER";"myrtille.chatenier@cdpne.org";"1"
"23437";"david";"CHAURAND";"david.chaurand@laposte.net";"1"
"3895";"Christian";"CHAUVIN";"christian.chauvin@irstea.fr";"1"
"20789";"Augustin";"CHENUT";"augustin.chenut@mnhn.fr";"1"
"8883";"Eva";"CHÉRAMY";"e.cheramy@eln28.org";"1"
"24371";"Gary";"CHEVALIER";"gary.chevalier@ids33017.delosmail.com";"1"
"25563";"Helene";"CHEVALIER";"helene.chevalier.nature@gmail.com";"1"
"12008";"Hélène";"CHEVALIER";"helene.chevalier@cen-bourgogne.fr";"1"
"21077";"Nicolas";"CHEVALIER";"nicolas.chevalier@loiret.fr";"1"
"20750";"Richard";"CHEVALIER";"richevalier@wanadoo.fr";"1"
"12083";"Patrick";"CHEVALLIER";"patchev@club-internet.fr";"1"
"8617";"Adrien";"CHOREIN";"adrien.chorein@cen-centrevaldeloire.org";"1"
"24102";"Johann";"CHRETIEN";"johann.chretien28@gmail.com";"1"
"5760";"Sarah";"CIRÉ";"sarah.cire@mnhn.fr";"1"
"7333";"Isabelle";"CIVETTE";"isabelle.civette@parcdumorvan.org";"1"
"22860";"Lydia";"CLAVEL-ROGGE";"lydiaclavelrogge@gmail.com";"1"
"25658";"Valentin";"CLISSON";"valentinclisson1@gmail.com";"1"
"24354";"Louis";"CLOUET";"louis.clouet@ecosphere.fr";"1"
"4236";"Arnaud";"COCHARD";"arnaud.cochard@gmail.com";"1"
"23713";"Marianne";"COHEN";"marianne.cohen@sorbonne-universite.fr";"1"
"25016";"Nathan";"COLAS";"nat.colas@hotmail.fr";"1"
"20855";"Vincent";"COLASSE";"vincentcolasse@laposte.net";"1"
"25765";"Marine";"COLOMBEY";"marine.colombey@ofb.gouv.fr";"1"
"24032";"gérard";"CONSTANTIN";"gerardconstantin@yahoo.fr";"1"
"607";"Stéphane";"CORDEAU";"stephane.cordeau@gmail.com";"1"
"5273";"Jordane";"CORDIER";"jordane.cordier@mnhn.fr";"1"
"24106";"christian";"CORDIER-LALLOUET";"ach.cordier@free.fr";"1"
"24243";"Michel";"CORGIER";"corgier-m@wanadoo.fr";"1"
"24274";"CBNBPSI";"CORRESPONDANT";"mgevaudan@mnhn.fr";"1"
"23578";"Raphaël";"COULOMBEL";"r.coulombel@cbnbl.org";"1"
"3860";"Sylvain";"COURANT";"courantsylvain@yahoo.fr";"1"
"23584";"Romain";"COURAULT";"romain.courault@univ-paris1.fr";"1"
"5758";"Elisa";"COURRIC";"elisa.courric@mnhn.fr";"1"
"26733";"Chantal";"COUSIN";"chantalcousin@wanadoo.fr";"1"
"3319";"Delphine";"CRESPEL";"delphine.crespel@auddice.com";"1"
"25723";"Delphine";"CRESPEL";"dcrespel@gmail.com";"1"
"23084";"Vincent";"CUDO";"vincentcudo@yahoo.com";"1"
"24981";"Etienne";"CUENOT";"e.cuenot@free.fr";"1"
"5336";"Aurélien";"CULAT";"aurelien.culat@cbnmc.fr";"1"
"24261";"Gabriel";"DA COSTA";"Gda_costa@cd-essonne.fr";"1"
"22531";"Magali";"DAHIREL";"magali.dahirel@mnhn.fr";"1"
"26734";"Hervé";"DALLEMAGNE";"hervedede@yahoo.fr";"1"
"22080";"Louan";"DAMAS";"louan.damas@lilo.org";"1"
"25561";"HEMERAY";"DAMIEN";"damien.hemeray@espaces-naturels.fr";"1"
"3490";"Michel";"DANAIS";"michel.danais@gmail.com";"1"
"24084";"Stephanie";"DARDENNE";"stephanie.dardenne@sfr.fr";"1"
"25781";"David";"DARDON";"david.dardon@ofb.gouv.fr";"1"
"25665";"Thibaud";"DAUMAL";"t.daumal@parc-oise-paysdefrance.fr";"1"
"20847";"Thibaud";"DAUMAL";"thibauddaumal_99@yahoo.com";"1"
"26726";"Camille";"DEBREE";"environnement@valdesully.fr";"1"
"24111";"Claire";"DEHARBE";"deharbe.claire2@gmail.com";"1"
"24331";"Claire";"DEHARBE";"c.deharbe@confluences-ic.fr";"1"
"5765";"François";"DEHONDT";"francois.dehondt@mnhn.fr";"1"
"24204";"François";"DEHONDT";"f_dehondt4@yahoo.fr";"1"
"20799";"Nicolas";"DéJEAN";"ndejean@lne45.org";"1"
"2249";"Nicolas";"DÉJEAN";"nicolas.dejean@hotmail.fr";"1"
"24300";"Karine";"DELABY";"karine.delaby@developpement-durable.gouv.fr";"1"
"20748";"Angélique";"DELAHAYE";"a.delahaye@nova-flore.com";"1"
"24199";"Alain";"DELANNOY";"afd@wanadoo.fr";"1"
"25685";"Camille";"DELAPLACE";"camille.delaplace@cen-bourgogne.fr";"1"
"22736";"Florence";"DELAROCHE";"florence.delaroche@cen-centrevaldeloire.org";"1"
"17217";"Marion";"DELAS";"marion.delas@ecotone.fr";"1"
"5419";"Adrien";"DELATTRE";"adrien.delattre@mnhn.fr";"1"
"23567";"Henri";"DELAUNAY";"henri.delaunay@iea45.fr";"1"
"26754";"Aube";"DELAUZE";"a.delauze@outlook.fr";"1"
"5570";"David";"DELHORBE";"davdel@gmail.com";"1"
"5442";"Juliette";"DELIZY";"juliette.delizy@mnhn.fr";"1"
"21116";"Aurélie";"DELMAS";"aurelie.delmas2@wanadoo.fr";"1"
"24968";"Pascal";"DEMAZIERE";"pascal.demaziere@wanadoo.fr";"1"
"24063";"Samuel";"DEMBSKI";"samuel.dembski@ofb.gouv.fr";"1"
"9106";"Cathy";"DENIMAL";"cathy.denimal@cg77.fr";"1"
"3307";"Maxime";"DEPINOY";"maxime.depinoy@auddice.com";"1"
"24203";"Alice";"DEROUBAIX";"a.deroubaix@eodd.fr";"1"
"5876";"Hugo";"DESBIOLLES";"hugo.desbiolles@mnhn.fr";"1"
"12605";"Hugo";"DESBIOLLES";"hugo.desbiolles@yahoo.fr";"1"
"17232";"Alain";"DESBROSSE";"a.desbrosse@wanadoo.fr";"1"
"24320";"hélène";"DESBROSSES";"helenedesbrosses@ciae-nemours.com";"1"
"7481";"Christophe";"DESCHAMPS";"deschamps.christophe@wanadoo.fr";"1"
"23995";"Aurélien";"DESCHATRES";"aurelien.deschatres@wanadoo.fr";"1"
"2354";"Florient";"DESMOULINS";"istari91@yahoo.fr";"1"
"24029";"Lucie";"DESVAUX";"lucie.desvaux@cen-bourgogne.fr";"1"
"5425";"Jérémy";"DÉTRÉE";"jeremy.detree@mnhn.fr";"1"
"17125";"sebastien";"DEXPERT";"sebastien.dexpert2006@wanadoo.fr";"1"
"23705";"Gilles";"DéZéCOT";"dezecot.giles@indrenature.net";"1"
"24026";"Florence";"DIALLO";"florence.diallo@mairie-vitry94.fr";"1"
"6706";"Cécile";"DIAZ";"cecile.diaz@cen-bourgogne.fr";"1"
"23975";"Clara";"DIDIER";"cdidier@groupe-ect.com";"1"
"24212";"Fanny";"DI MAIO";"fanny.dimaio@yahoo.fr";"1"
"20734";"Cyprien";"DOBRA";"cbnbp.mnhn@kgb.ovh";"1"
"25742";"Julia";"D'ORCHYMONT";"j.dorchymont@laposte.net";"1"
"24077";"Colette";"DORION";"dorioncol@yahoo.fr";"1"
"26724";"Marc";"DOUBLIER";"marc.doublier@idverde.com";"1"
"8739";"Marc";"DOUCHIN";"marc.douchin@yahoo.fr";"1"
"25547";"Marc";"DOUCHIN";"marc.douchin89@gmail.com";"1"
"11014";"Emmanuel";"DOUILLARD";"emmanuel.douillard@parc-naturel-perche.fr";"1"
"25020";"Bruno";"DREVON";"bruno.drevon@laposte.net";"1"
"23079";"Achille";"DROUHARD";"achille.drouhard@cpiesudchampagne.fr";"1"
"17235";"Fabien";"DUBOIS";"f.dubois@soluris.fr";"1"
"25775";"MICHAEL";"DUBREUIL";"michael.dubreuil@mfr.asso.fr";"1"
"26765";"André";"DUCHEMIN";"ajp.duchemin@gmail.com";"1"
"22512";"Estelle";"DUCLOS";"estelle2503@hotmail.com";"1"
"25679";"Annie";"DUFLO";"a.duflo@free.fr";"1"
"23598";"Gaylord";"DUJARDIN";"gaylord.lbo@hotmail.fr";"1"
"20839";"Gaylord";"DUJARDIN";"gaylord.dujardin@ecosphere.fr";"1"
"22101";"Yann";"DUMAS";"yann.dumas@inrae.fr";"1"
"24327";"NICOLAS";"DUMEZ";"nicolas.dumez@hotmail.com";"1"
"24378";"Pauline";"DUMONT";"pauline.dumont@sce.fr";"1"
"23992";"Oscar";"DUPIN";"oskardupin@gmail.com";"1"
"2987";"Rémi";"DUPRÉ";"remi.dupre@mnhn.fr";"1"
"22913";"Théo";"DUQUESNE";"theo.duquesne@syndicatdelorge.fr";"1"
"16988";"Bruno";"DURAND";"bruno.durand@cbnpmp.fr";"1"
"22817";"Abel";"DURANONA";"abelduranona@gmail.com";"1"
"3469";"Alain";"DUTARTRE";"alain.dutartre@free.fr";"1"
"25684";"Marie";"DUVAL";"m.duval@cbnal.fr";"1"
"4340";"Théo";"EMERIAU";"t.emeriau@cbnsa.fr";"1"
"25741";"Léa";"EMERY";"lemery@ecr-environnement.com";"1"
"5573";"Gianni";"ENSELME";"gianni.enselme@gmail.com";"1"
"24291";"Cyril";"EPICOCO";"cyril.epicoco@ecomail.fr";"1"
"4379";"Charlotte";"EPLE";"charlotte.eple@hotmail.fr";"1"
"24328";"OLIVIER";"ESCUDER";"escuder@mnhn.fr";"1"
"20779";"Matthieu";"ESLINE";"matthieu.esline@ecosphere.fr";"1"
"3329";"Sarah";"ESNAULT";"sarah.esnault@orange.fr";"1"
"24976";"Morgane";"EVELINGER";"morgane.evelinger@sce.fr";"1"
"23998";"Mathis";"EVEZARD";"mathis.evez@gmail.com";"1"
"24294";"Cyprien";"EYRAUD";"cypien.eyraud@syndicatdelorge.fr";"1"
"16901";"Vinciane";"FACK";"vfack@mnhn.fr";"1"
"26742";"Elodie";"FARCY";"elodie.farcy@ofb.gouv.fr";"1"
"25700";"Laura";"FAURE";"faurelaura22@gmail.com";"1"
"7017";"Alain";"FAVROT";"favrot.alain@neuf.fr";"1"
"5415";"Eric";"FEDOROFF";"eric.fedoroff@mnhn.fr";"1"
"5426";"Thierry";"FERNEZ";"thierry.fernez@mnhn.fr";"1"
"5808";"Thibaut";"FERRAILLE";"thibaut.ferraille@cefe.cnrs.fr";"1"
"5427";"Leslie";"FERREIRA";"leslie.ferreira@mnhn.fr";"1"
"20848";"Pascal";"FICHOT";"pascal.fichot@gmail.com";"1"
"25557";"Manuel";"FILLIN";"manimo.fillin@gmail.com";"1"
"5281";"Sébastien";"FILOCHE";"sebastien.filoche@mnhn.fr";"1"
"24090";"Berger";"FIONA";"fiona.berger@sepant.fr";"1"
"23438";"Jonathan";"FLANDIN";"jonathan.flandin91@gmail.com";"1"
"20728";"Matthieu";"FLEUET";"matthieu.fleuet@gmail.com";"1"
"5632";"Célia";"FLORCZYK";"c.florczyk@cen-na.org";"1"
"22807";"Huon";"FLORENT";"florent.huon@gmail.com";"1"
"25793";"Guillaume";"FOLI";"guillaume.foli@auddice.com";"1"
"2973";"Marine";"FONT";"mafont@albretcommunaute.fr";"1"
"20873";"Augustin";"FONTENELLE";"aug.fontenelle@gmail.com";"1"
"20746";"Benoit";"FOREAU";"benoit.foreau@gmail.com";"1"
"23758";"Louis";"FORêT";"lforet@alisea-environnement.fr";"1"
"24240";"Benjamin";"FOUGèRE";"fougere.benjamin@gmail.com";"1"
"5155";"Maxence";"FOUILLADE";"maxence.fouillade@gmail.com";"1"
"22923";"thibault";"FOURRIER";"thibaultfourrier@hotmail.fr";"1"
"7724";"Cédric";"FOUTEL";"cedric.foutel@cen-bourgogne.fr";"1"
"23488";"Manuel";"FRANÇONNET";"manuel.franconnet@ofb.gouv.fr";"1"
"20724";"Cécile";"FRELIN";"cecile.frelin@gmail.com";"1"
"20722";"Rémi";"FRIOUX";"remi.frioux@nature18.org";"1"
"20723";"Rémi";"FRIOUX";"remi.frioux@live.fr";"1"
"12";"Frédéric";"FY";"f.fy@cbnsa.fr";"1"
"24325";"Corentin";"GAGNEPAIN";"corentin.gagnepain@auddice.com";"1"
"20901";"LENA";"GAHERY";"lena.lngr@gmail.com";"1"
"22492";"Elisabeth";"GAILLARD";"elisabeth.gaillard@gmail.com";"1"
"9974";"Nicole";"GAILLOT-BONNARD";"Nicole.GAILLOT-BONNART@developpement-durable.gouv.fr";"1"
"9697";"Nicolas";"GALAND";"n.galand@pnr-vexin-francais.fr";"1"
"24353";"Amandine";"GALLOIS";"agallois@seinesaintdenis.fr";"1"
"17074";"Céline";"GASTAUD";"c.gastaud@cittanova.fr";"1"
"24339";"celine";"GASTELLIER";"ddt-seef-biodversite@loiret.gouv.fr";"1"
"24338";"celine";"GASTELLIER";"ddt-seef-biodiversite@lmoiret.gouv.fr";"1"
"25553";"Céline";"GASTELLIER";"celine.gastellier@loiret.gouv.fr";"1"
"24022";"Leslie";"GATEAU";"leslie.gateau@gmail.com";"1"
"20";"Patrick";"GATIGNOL";"patrick.gatignol@free.fr";"1"
"24083";"Sylvain";"GAUDIN";"sylvain.gaudin@orange.fr";"1"
"25802";"Philippe";"GAUTHIER";"philippe.gauthier@ofb.gouv.fr";"1"
"4325";"Pierre";"GAUTHIER";"pierre.gauthier@eccel-environnement.fr";"1"
"23723";"Julian";"GAUTIER";"projet0851faune@cen-champagne-ardenne.org";"1"
"577";"Sarah";"GAUTIER";"sarah.gautier9@gmail.com";"1"
"24953";"Matthieu";"GAUVRIT";"gauvrit.matthieu.yvette@gmail.com";"1"
"12603";"Nicolas";"GEORGES";"ngeorges348@yahoo.fr";"1"
"8890";"Hélène";"GERVAIS";"helene.gervais@cen-bourgogne.fr";"1"
"54";"Julien";"GESLIN";"juliengeslin@yahoo.fr";"1"
"5244";"Marie-Laure";"GESLIN";"marie-laure.geslin@hardy-environnement.fr";"1"
"20811";"Maxence";"GéVAUDAN";"maxence.gevaudan@mnhn.fr";"1"
"24972";"Ines";"GHERAB";"igherab@envol-environnement.fr";"1"
"24336";"Vincent";"GILLET";"vincent.morio@yahoo.fr";"1"
"1139";"Vincent";"GILLET";"vincent@reprolaser.fr";"1"
"24081";"Charlotte";"GIORDANO";"c.giordano@cpie-bouclesdelamarne.fr";"1"
"24278";"Magali";"GIRARD";"magali.girard@developpement-durable.gouv.fr";"1"
"9747";"Sébastien";"GIRARD";"sebastien.girard@valdoise.fr";"1"
"20812";"Quentin";"GIRAUD";"quentin.giraud-23@orange.fr";"1"
"1905";"Lionel";"GIRE";"lionel_gire@yahoo.fr";"1"
"26776";"Charlotte";"GIRONDE";"c.gironde@eodd.fr";"1"
"24024";"Aurélie";"GIROUX";"aurelie.giroux@le-cere.fr";"1"
"24209";"Chloé";"GISLOT";"chloe.gislot@sepant.fr";"1"
"7719";"Samuel";"GOMEZ";"samuel.gomez@cen-bourgogne.fr";"1"
"26748";"Gabriel";"GONIN";"gabriel.gonin@valdoise.fr";"1"
"20733";"Jean-Luc";"GORREMANS";"jean_luc.gorremans@orange.fr";"1"
"4706";"Akaren";"GOUDIABY";"akaren.goudiaby@amonia.fr";"1"
"2369";"Anne";"GOUDOUR";"anne.goudour@wanadoo.fr";"1"
"370";"Sophie";"GOUEL";"s.gouel@cbnsa.fr";"1"
"64";"Johan";"GOURVIL";"jgourvil@netcourrier.com";"1"
"25545";"Jean-Philippe";"GOYEN";"jean-philippe.goyen@ofb.gouv.fr";"1"
"25795";"bernard";"GRANGENEUVE";"bernard.grangeneuve@ofb.gouv.fr";"1"
"23490";"Aurélien";"GREAUME";"aurel.gr11@gmail.com";"1"
"24297";"Annie";"GRéAUME";"greaumeannie@gmail.com";"1"
"6921";"Serge";"GRESSETTE";"serge.gressette@cen-centrevaldeloire.org";"1"
"25739";"Marion";"GRIMAUD";"natura2000@federationpeche77.fr";"1"
"26751";"Aurélie";"GRISON";"a.grison@valdesully.fr";"1"
"24225";"Soazic";"GRISON";"soazbg@gmail.com";"1"
"5431";"Chantal";"GRIVEAU";"chantal.griveau@mnhn.fr";"1"
"26779";"Pauline";"GRULOIS";"pgrulois@cd-essonne.fr";"1"
"24305";"Pierre";"GRZELEC";"pierre.grzelec@developpement-durable.gouv.fr";"1"
"5201";"Enzo";"GUCCIARDO";"316enzo@gmail.com";"1"
"21078";"Simon";"GUEGUIN";"simon.gueguin@loiret.fr";"1"
"12298";"Michel";"GUERIN";"michel.guerin@club-internet.fr";"1"
"23508";"Pascal";"GUICHARD";"p.guichard@tauw.com";"1"
"20738";"Antoine";"GUILBAUD";"antoine.guilbaud@yahoo.fr";"1"
"1204";"Fanny";"GUILLAUD";"fanny.guillaud@gmail.com";"1"
"24061";"Florian";"GUILLAUME";"florian.guillaume@auddice.com";"1"
"16954";"Vincent";"GUILLEMOT";"v.guillemot@hotmail.fr";"1"
"21036";"Elsa";"GUILLEY";"elsa.guilley@mnhn.fr";"1"
"24158";"Catherine";"HAEHNEL";"catherine.haehnel@prelude-be.fr";"1"
"22781";"Guillaume";"HAMON";"g.hamon.cen41@gmail.com";"1"
"612";"Franck";"HARDY";"f.hardy@cbnsa.fr";"1"
"25527";"Mariane";"HARMAND";"mariane.harmand@cen-bourgogne.fr";"1"
"24356";"Pierre";"HAUTEVILLE";"pierre.hauteville@developpement-durable.gouv.fr";"1"
"24096";"erik";"HEDREUL";"hedreul.erik@yahoo.fr";"1"
"9617";"Erik";"HEDREUL";"erik.hedreul@u-psud.fr";"1"
"5444";"Christine";"HEIM";"christine.heim@mnhn.fr";"1"
"5280";"Frédéric";"HENDOUX";"frederic.hendoux@mnhn.fr";"1"
"21037";"Claudette";"HENNICHE";"claudette.henniche@gmail.com";"1"
"25708";"Rémi";"HENRY";"remihenry94@hotmail.fr";"1"
"22547";"Jean-Luc";"HERCENT";"jl.hercent@parc-oIse-paysdefrance.fr";"1"
"9650";"Jean-Luc";"HERCENT";"jl.hercent@parc-oise-paysdefrance.fr";"1"
"10439";"François";"HERGOTT";"francois.hergott@cen-centrevaldeloire.org";"1"
"22726";"Vincent";"HERLEDAN";"vherledan@yahoo.fr";"1"
"25560";"Lucas";"HERNANDEZ";"lucas.hernandez@ecosphere.fr";"1"
"24293";"Juliette";"HODIER";"syndicat.brenne@wanadoo.fr";"1"
"23986";"Lucie";"HOORNAERT";"lucie_hoo@hotmail.com";"1"
"4053";"Colin";"HOSTEIN";"colin.hostein@cbnmc.fr";"1"
"12129";"Xavier";"HOUARD";"xavier.houard@insectes.org";"1"
"24040";"Nicolas";"HOUBRON";"nicolas.houbron@auddice.com";"1"
"8181";"Marie";"HOUESSE";"marie.houesse@cen-centrevaldeloire.org";"1"
"21072";"Kenny";"HUAN";"gexaxe2553@xegge.com";"1"
"21073";"Kenny";"HUAN";"haoxiang.huang@metapolis.fr";"1"
"21113";"Kenny";"HUAN";"kny.gaming75@gmail.com";"1"
"22947";"Etienne";"HUBERT";"etienne.hubert@shna.fr";"1"
"5536";"Nicolas";"HUGOT";"nicolas.hugot@iea45.fr";"1"
"11025";"Gérard";"HUNAULT";"gm.hunault@orange.fr";"1"
"1670";"Ghislain";"HUYGHE";"g.huyghe@gmail.com";"1"
"8180";"Caroline";"IDIR";"caroline45plante@sfr.fr";"1"
"1306";"Sandrine";"JACQUELIN";"sandrine.jacquelin@onf.fr";"1"
"16922";"Marion";"JANSANA";"m.jansana@agglo-saintes.fr";"1"
"21088";"Philippe";"JAUZEIN";"p.jauzein@free.fr";"1"
"25698";"Coralie";"JEAN--ABAUZIT";"coralie.jean-abauzit@parcdumorvan.org";"1"
"7751";"Frédéric";"JEANDENAND";"frederic.jeandenand@cen-bourgogne.fr";"1"
"22125";"Corentin";"JEHANNO";"c.jehanno@oge.fr";"1"
"22785";"Fabrice";"JOACHIM";"rnrc@pnrfo.org";"1"
"24266";"Elodie";"JOLIVEAU-VALLéE";"environnement@payscastelroussin.fr";"1"
"24319";"Jérémy";"JOLIVET";"sivy@ville-bourges.fr";"1"
"24244";"Cyprien";"JOLY";"joly.cyprien@free.fr";"1"
"26721";"Marie";"JORET DES CLOSIèRES";"mdesclosieres@g-on.fr";"1"
"3246";"Nicolas";"JOUBERT";"njoubert@verdi-ingenierie.fr";"1"
"8632";"Antonin";"JOURDAS";"antoninjourdas.lne@orange.fr";"1"
"24947";"Antonin";"JOURDAS";"antonin.jourdas@gmail.com";"1"
"7735";"Maxime";"JOUVE";"maxime.jouve@cen-bourgogne.fr";"1"
"26774";"Maxime";"JOUVE";"maxjouve@hotmail.com";"1"
"23977";"Pierre";"JUILLARD";"pierre.juillard@ccgevrey-nuits.com";"1"
"6898";"Pierre";"JUILLARD";"etudes.ccgc@espaces-naturels.fr";"1"
"11905";"Nese";"KAPLAN";"nesekaplan@sepant.fr";"1"
"1515";"Francis";"KESSLER";"francis.kessler@cbnpmp.fr";"1"
"25003";"Antoine";"KITA";"antoine.kita@gmail.com";"1"
"24072";"Mégane";"KROUCH";"krouch.megane@gmail.com";"1"
"23958";"Listya";"KUSUMAWATI";"klistya@gmail.com";"1"
"5337";"Aurélien";"LABROCHE";"aurelien.labroche@cbnmc.fr";"1"
"16913";"Nathalie";"LACHIZE";"nathalie.lachize@socotec.com";"1"
"22797";"Patrick";"LACOUR";"patrick.lacour@laposte.net";"1"
"25551";"Arnaud";"LACULLE";"ARNAUD.LACULLE@GMAIL.COM";"1"
"24978";"Bryan";"LADNER";"rivieres@cc-berryloirepuisaye.fr";"1"
"24092";"Valérie";"LAGNY";"vlagny@club-internet.fr";"1"
"9932";"Vincent";"LAIGNIEL";"vincent.laignel@loir-et-cher.gouv.fr";"1"
"25528";"Charlotte";"LAINé";"charlotte@458energy.com";"1"
"23950";"johann";"LALLEMAND";"jlallemand@ville-dijon.fr";"1"
"20852";"Anne-Marie";"LAMY";"am.lamy@free.fr";"1"
"8721";"Patrice";"LANFANT";"patrice.lanfant@cegetel.net";"1"
"4810";"Richard";"LANSDOWN";"rvlansdown@gmail.com";"1"
"9968";"Guillaume";"LARREGLE";"giom15@yahoo.fr";"1"
"8154";"Florian";"LAURENCEAU";"perche.nature.gestion@orange.fr";"1"
"1248";"Maxime";"LAVOUÉ";"maxime.lavoue@gmail.com";"1"
"26720";"Victorine";"LEBIGOT";"victorine.lebigot@ecosphere.fr";"1"
"5416";"Marie";"LEBLANC";"marie.leblanc1@mnhn.fr";"1"
"24257";"Franck";"LE BLOCH";"franck.le.bloch@ecosphere.fr";"1"
"69";"Nicolas";"LEBLOND";"n.leblond@cbnsa.fr";"1"
"12588";"Amandine";"LEBOURG";"amandine.lebourg@mnhn.fr";"1"
"22770";"Julie";"LEBRASSEUR";"j.lebrasseur.cen41@gmail.com";"1"
"4322";"Alexis";"LEBRETON";"alexis.lebreton@ofb.gouv.fr";"1"
"20781";"Capucine";"LEBRUN";"capucine.lebrun@outlook.fr";"1"
"21076";"Céline";"LEBRUN";"celine.lebrun@loiret.fr";"1"
"22124";"Jérémy";"LEBRUN";"J.Lebrun@cen-normandie.fr";"1"
"22596";"Clotilde";"LECOESTER";"clotilde.lecoester@mnhn.fr";"1"
"20854";"Romaric";"LECONTE";"rleconte@cen-champagne-ardenne.org";"1"
"24975";"Hugo";"LEFEBVRE";"hugo.lefebvre@sce.fr";"1"
"1238";"Jean-Raphaël";"LEGALLAIS";"j.legallais@cbnsa.fr";"1"
"24949";"François";"LE GARREC";"francois.lgrc@gmail.com";"1"
"25779";"Coline";"LEGENDRE";"coline.legendre@ofb.gouv.fr";"1"
"3885";"Vincent";"LE GLOANEC";"vincent.legloanec@cbnmc.fr";"1"
"4267";"Marion";"LEGRAND";"m.legrand@aquitaine-environnement.fr";"1"
"23504";"Patrick";"LEGRAND";"patrick45.legrand@orange.fr";"1"
"20891";"Laurianne";"LEGRIS";"laurianne.legris@biotec.fr";"1"
"22602";"FIONA";"LEHANE";"direction@cpie-bouclesdelamarne.fr";"1"
"1522";"Pierre-Marie";"LE HÉNAFF";"pierre-marie.lehenaff@cbnmc.fr";"1"
"22649";"Valentin";"LEHERICEY";"v.lehericey@aepe-gingko.fr";"1"
"26789";"Charline";"LELEUX";"charline.leleux@shna.fr";"1"
"24264";"Cécile";"LEMOINE";"c.lemoine@cc-puisayeforterre.fr";"1"
"24308";"Lucie";"LENGLET";"lucie.lenglet@ecosphere.fr";"1"
"5339";"Jacques-Henri";"LEPRINCE";"jacques-henri.leprince@cbnmc.fr";"1"
"21136";"Clarysse";"LEPROUX";"clarysse.leproux@gmail.com";"1"
"23743";"Clarysse";"LEPROUX";"c.leproux@rainette-ecologie.com";"1"
"23085";"Daniel";"LE QUéRé";"daniel@lequere.net";"1"
"20902";"Laurent";"LéQUIVARD";"laulequi@club-internet.fr";"1"
"5428";"Oona";"LE RALLIC-MAHO";"oona.le-rallic-maho@mnhn.fr";"1"
"24277";"Yvonnick";"LESAUX";"yvonnick.lesaux@developpement-durable.gouv.fr";"1"
"5061";"Sébastien";"LESNÉ";"seb.lesne@gmail.com";"1"
"26722";"Alexia";"LEVEILLE";"aleveille@hydrosphere.fr";"1"
"17110";"André";"LEVEQUE";"levequeandre@hotmail.com";"1"
"24962";"Kévin";"LEVEQUE";"kevinleveque-assonature@hotmail.fr";"1"
"24986";"Gérard";"LEVESLIN";"gerard.leveslin@gmail.com";"1"
"23484";"Nathalie";"LEVY";"nathalie.levy6@gmail.com";"1"
"22755";"Thomas";"LHEUREUX";"thomas.lhx@gmail.com";"1"
"26729";"Jean-Yves";"LIMOUZIN";"jean-yves.limouzin@ofb.gouv.fr";"1"
"24279";"Vincent";"LIPA";"vincent.lipa@paris.fr";"1"
"6306";"Antoine";"LOMBARD";"antoine.lombard@developpement-durable.gouv.fr";"1"
"20878";"Jessica";"LOPEZ";"jlopez77400@gmail.com";"1"
"23448";"Joséphine";"LOPEZ";"josephine.lopez@ofb.gouv.fr";"1"
"3629";"Sandrine";"LORIOT";"s.loriot@cbnsa.fr";"1"
"23970";"Stéphane";"LUCET";"stephane.lucet@developpement-durable.gouv.fr";"1"
"21131";"Charlotte";"LUPI";"charlotte.lupin@yahoo.fr";"1"
"20998";"Bruno";"MACÉ";"br.mace@free.fr";"1"
"3710";"Mickaël";"MADY";"mickael.mady@cbnmc.fr";"1"
"24299";"Annabelle";"MAHOUDEAU";"annabelle.mahoudeau@eurelien.fr";"1"
"5066";"Benoit";"MAILLET";"benoit.maillet2@wanadoo.fr";"1"
"17184";"Francois";"MAILLET";"frsmaillet@gmail.com";"1"
"16959";"Souleïmen";"MAINARD";"smainard@verdi-ingenierie.fr";"1"
"50";"Valéry";"MALÉCOT";"valery.malecot@agrocampus-ouest.fr";"1"
"25011";"LAURA";"MANAUD";"laura.manaud@evinrerude.fr";"1"
"24076";"Clément";"MAOUCHE";"clement.maouche@gmail.com";"1"
"25694";"Chloé";"MARADAN";"chloe.maradan@cen-bourgogne.fr";"1"
"21001";"Benjamin";"MARANDON";"benjaminmarandon@gmail.com";"1"
"24079";"Olivier";"MARCHAL";"o.marchal@parc-naturel-chevreuse.fr";"1"
"5813";"Olivier";"MARIÉ";"olivier-marie@laposte.net";"1"
"25566";"Othilia";"MAROTTE";"othilia.marotte@cen-bougogne.fr";"1"
"25699";"Jean-Bernard";"MARQUE";"jean-bernard.marque@orange.fr";"1"
"24318";"Charlotte";"MARTIAL";"charlotte.martial@calidris.fr";"1"
"25567";"Yoan";"MARTIN";"y.martin@cbnal.fr";"1"
"20874";"Da Silva";"MARTINS";"miguel.martinsdasilv@free.fr";"1"
"25714";"Thomas";"MASCLAUX";"tmasclaux@biotope.fr";"1"
"24344";"Franck";"MASSé";"masse.franck@yahoo.fr";"1"
"20739";"Bertrand";"MASSON";"bertrand.masson@mnhn.fr";"1"
"6";"Gaëtan";"MASSON";"cbsa.gm@laposte.net";"1"
"25768";"Sébastien";"MATHIEU";"sebastien.mathieu@ofb.gouv.fr";"1"
"26725";"Luc";"MAUCHAMP";"lmauchamp@orange.fr";"1"
"5764";"Olivier";"MAUCHARD";"olivier.mauchard@mnhn.fr";"1"
"22821";"olliver";"MAUCHARD";"olivierbbart@gmail.com";"1"
"22478";"Pierre";"MAURICE";"maurice.pierre@yahoo.fr";"1"
"5272";"Julien";"MAZIERE";"maziere.julien@outlook.fr";"1"
"3655";"Alexis";"MECHINEAU";"a.mechineau@hotmail.fr";"1"
"20717";"Frédéric";"MÉLANTOIS";"frederic@melantois.fr";"1"
"5417";"Ombeline";"MENARD";"ombeline.menard@mnhn.fr";"1"
"8873";"Jean-Emmanuel";"MÉNARD";"jean-emmanuel.menard@developpement-durable.gouv.fr";"1"
"5666";"Sébastien";"MERLE";"sebastien.merle@evinerude.fr";"1"
"24380";"Adrien";"MESSEAN";"adrien.messean@hotmail.fr";"1"
"24377";"Hélène";"MEYNIER";"ln.thibault@gmail.com";"1"
"17219";"Caroline";"MICALLEF";"caroline.micallef@ne17.fr";"1"
"20788";"Léo";"MICOUIN";"micouinleo@gmail.com";"1"
"22046";"Renaud";"MIELCAREK";"r.mielcarek@audc51.org";"1"
"22730";"Pierre";"MIGUET";"pierre.miguet@yahoo.fr";"1"
"5279";"Marine";"MILLET";"marine.robichon@mnhn.fr";"1"
"5949";"Jean-Charles";"MILLOUET";"jean-charles.millouet@onf.fr";"1"
"7319";"Joël";"MINOIS";"joel_minois@yahoo.fr";"1"
"4768";"Margaux";"MISTARZ";"margaux.mistarz@mnhn.fr";"1"
"5115";"Nicolas";"MOKUENKO";"nicolas.mokuenko@gmail.com";"1"
"5429";"Aurore";"MOLLEREAU";"aurore.mollereau@gmail.com";"1"
"24069";"Lisa";"MOMONT";"lisa.momont@gmail.com";"1"
"2539";"Julien";"MONDION";"julien.mondion@mnhn.fr";"1"
"24062";"Cédric";"MONDY";"cedric.mondy@ofb.gouv.fr";"1"
"24337";"Chloé";"MONEIN";"chloe.monein@outlook.fr";"1"
"24316";"ANGELIQUE";"MONGUILLON";"reservenaturelle@ville-limay.fr";"1"
"3600";"Richard";"MONIER";"Richard.Monier75@gmail.com";"1"
"3364";"Sylvain";"MONTAGNER";"montagnersylvain@yahoo.fr";"1"
"5665";"Julien";"MONTICOLO";"julien.monticolo@mnhn.fr";"1"
"4238";"Frédéric";"MORA";"fmora@biotope.fr";"1"
"25671";"Clotilde";"MOREAU";"clotilde.moreau@indrenature.net";"1"
"20719";"Thierry";"MOREAU";"thierry.moreau@cdpne.org";"1"
"5420";"Françoise";"MORGAN";"francoise.morgan@mnhn.fr";"1"
"25001";"Pierre-Hadrien";"MORTIER";"pierre.hadrien.7@gmail.com";"1"
"23959";"Eloïse";"MOULIN-TANGUY";"eloise.moulintanguy@forets-parcnational.fr";"1"
"24970";"Magali";"MOURLHOU";"magali.mourlhou@inrae.fr";"1"
"21089";"Dimitri";"MULTEAU";"dimitri.multeau@departement41.fr";"1"
"21025";"Juliette";"MURGIER";"juliette.murgier@mnhn.fr";"1"
"1675";"Olivier";"NAWROT";"nawrot.olivier@gmail.com";"1"
"26732";"Philippe";"NéCHAB";"philippe.nechab@safti.fr";"1"
"5763";"Corentin";"NICOD";"corentin.nicod@mnhn.fr";"1"
"24384";"Benoit";"NICOLAS";"benonico@hotmail.fr";"1"
"4950";"Vincent";"NICOLAS";"vincent.nicolas@ntymail.com";"1"
"11641";"Jérémy";"NOBLE";"Jeremy.noble@valdoise.fr";"1"
"11921";"Eloïse";"NORAZ";"enoraz@lne45.org";"1"
"4305";"Coline";"NOYAU";"coline.noyau@lpo.fr";"1"
"24312";"Francis";"OLIVEREAU";"francis.olivereau@developpement-durable.gouv.fr";"1"
"10782";"Francis";"OLIVEREAU";"Francis.OLIVEREAU@developpement-durable.gouv.fr";"1"
"1888";"Clémence";"OLLIVIER";"clemolli@live.fr";"1"
"25769";"Laurent";"OURLY";"laurent.ourly@ofb.gouv.fr";"1"
"17229";"Valentine";"OUROUX";"valentine.ouroux502@gmail.com";"1"
"8825";"Rolland";"PAILLAT";"rolland.paillat@cen-centrevaldeloire.org";"1"
"20725";"Anne-Hélène";"PARADIS";"paradis.ah@gmail.com";"1"
"7381";"Laurent";"PARIS";"laurent.paris@parcdumorvan.org";"1"
"23725";"Justin";"PARKITNY";"direction@syrsa.fr";"1"
"23097";"Bernard";"PASQUIER";"bernardpasquier@wanadoo.fr";"1"
"24016";"Palmyre";"PASTEAU";"palmyre.pasteau@gmail.com";"1"
"25656";"Aude";"PELICHET";"aude.pelichet@parcdumorvan.org";"1"
"24262";"Julie";"PENNETEAU";"juliepen.pro@gmail.com";"1"
"1586";"Stéphane";"PERERA";"stephane.perera@cbnmc.fr";"1"
"12103";"Emilie";"PÉRIÉ";"emilie.perie@cergypontoise.fr";"1"
"24935";"Anne";"PERIN";"anneperin66@gmail.com";"1"
"23721";"Pascal";"PERNOT";"pp@caladenia.net";"1"
"23555";"Marion";"PERRET-BLOIS";"marion.perretblois@lilo.org";"1"
"3642";"Fabrice";"PERRIAT";"fabrice.perriat@cbnpmp.fr";"1"
"24200";"Gilles";"PERRIN";"gilles.perrin@hotmail.fr";"1"
"25737";"Maximilien";"PERRIN";"maximilien.perrin@encem.com";"1"
"17013";"Anais";"PERRINEAU";"anais.perrineau@terroiko.fr";"1"
"4926";"Michel";"PERRINET";"symbiose.env@orange.fr";"1"
"22728";"Théo";"PERVILLé";"pervilletheo@gmail.com";"1"
"25778";"Christophe";"PETIT";"christophe.petit@ofb.gouv.fr";"1"
"5230";"Loic";"PETIT";"loic.petit3@gmail.com";"1"
"20665";"Marielle";"PETITEAU";"marielle.petiteau@thema-environnement.fr";"1"
"2517";"Morgan";"PEYRARD";"m.peyrard.cbe@gmail.com";"1"
"26763";"Clélie";"PHILIPPE";"c.philippe@rainette-ecologie.com";"1"
"17224";"Axelle";"PIAUDEL";"axelle.piaudel@gmail.com";"1"
"10179";"Charlotte";"PICARD";"charlotte.picard@nature18.org";"1"
"5074";"Florian";"PICAUD";"tours@adev-environnement.com";"1"
"23771";"Juliette";"PIERROT";"j.pierrot@eln28.org";"1"
"22909";"Rémi";"PILLARD";"remi.pillard@ofb.gouv.fr";"1"
"24009";"Sylvain";"PILLON";"sylvain.pillon@cnpf.fr";"1"
"22854";"Adrien";"PINEAU";"pineau.adrien1997@gmail.com";"1"
"23564";"Alexandra";"PINELLE";"a.pinelle@parc-montagnedereims.fr";"1"
"24255";"François";"PINET";"f.pinet@parc-naturel-brenne.fr";"1"
"25697";"Marie Pierre";"PINON";"pinon.marie-pierre@aesn.fr";"1"
"25666";"sarah";"PINON";"sarahpinon1@gmail.com";"1"
"23006";"THIERRY";"PISZCZAN";"thierry.piszczan@gmail.com";"1"
"24247";"Baptiste";"PLANA";"baptisteplana@laposte.net";"1"
"24251";"Morgane";"PLANCHETTE";"morgane.planchette@sepant.fr";"1"
"24931";"Sylvestre";"PLANCKE";"sylvestre.plancke@departement77.fr";"1"
"16989";"Emmy";"PLANQUAIS";"emmy.planquais@mnhn.fr";"1"
"23563";"Eva";"POILVé";"e.poilve@parc-montagnedereims.fr";"1"
"23595";"Aurélien";"POIREL";"aurelien.poirel@cen-bourgogne.fr";"1"
"5129";"Marion";"POIRET";"marionpoiret@hotmail.fr";"1"
"23507";"Mathilde";"POISSENOT";"mathilde.poissenot@lilo.org";"1"
"24082";"Marc";"POISSON";"marc.poisson@mnhn.fr";"1"
"23476";"Emmanuel";"POLLET";"emmanuel.pollet@ofb.gouv.fr";"1"
"22843";"Lilian";"PONCELET-QUINTARD";"l.poncelet-quintard@gmx.fr";"1"
"5286";"Alexandra";"POTIER";"alexandra.potier@mnhn.fr";"1"
"11123";"Anne-Marie";"POU";"anne-marie.pou@orange.fr";"1"
"4280";"Justine";"POUJOL";"justinepoujol@live.fr";"1"
"10200";"Aurélie";"POUMAILLOUX";"aurelie.poumailloux@cdpne.org";"1"
"2930";"Florent";"POUZET";"fpouzet@calyx.fr";"1"
"6859";"Jean-Louis";"PRATZ";"jeanlouis.pratz@wanadoo.fr";"1"
"23485";"Tony";"PRESSE";"tony.presse@ofb.gouv.fr";"1"
"25662";"Jean";"PRIEUR";"jean_prieur@yahoo.fr";"1"
"22977";"Sergio";"PRO";"biloserge@yahoo.fr";"1"
"16984";"François";"PRUD'HOMME";"francois.prudhomme@cbnpmp.fr";"1"
"22595";"Kimberley";"PRUD'HOMME";"kimberley.prudhomme@mnhn.fr";"1"
"25012";"Loreley";"PRUNIER";"loreley.prunier@cen-bourgogne.fr";"1"
"5412";"Damien";"PUJOL";"dpujol@mnhn.fr";"1"
"26772";"Lucile";"QUéNARD";"lucile.quenard@fredon-centrevaldeloire.fr";"1"
"25558";"Nolwenn";"QUILLIEC";"n.quilliec@parcduvexin.fr";"1"
"25680";"Erwann";"RADENAC";"erwann_radenac@mailoo.org";"1"
"23761";"Alban";"RADIGUE";"alban.radigue@gendarmerie.interieur.gouv.fr";"1"
"5278";"Maëlle";"RAMBAUD";"maelle.rambaud@mnhn.fr";"1"
"5533";"Antoine";"RAVARY";"aravary@systra.com";"1"
"24364";"Charles";"RAVEAUX";"charles.raveaux.pro@gmail.com";"1"
"5436";"Philippe";"RAYNARD";"philipperaynard@aliceadsl.fr";"1"
"24375";"Jean-Silouane";"REBOURS";"jsrebours@yahoo.fr";"1"
"22580";"Teddy";"RECHER";"teddy.recher@mnhn.fr";"1"
"23581";"Baptiste";"REGNERY";"baptiste.regnery@arb-na.fr";"1"
"20821";"Christophe";"RENAUD";"renaud.christophe@orange.fr";"1"
"24231";"Olivier";"RENAULT";"oliv.r@free.fr";"1"
"23715";"Manon";"RESCAN";"manon.rescan@cen-centrevaldeloire.org";"1"
"25000";"Antoine";"RIBES";"antoine.nicolas.ribes@gmail.com";"1"
"24229";"Ophélie";"RICCI";"ophelie.ricci@institutparisregion.fr";"1"
"25532";"Nina";"RICHARD";"nina.richard@univ-tours.fr";"1"
"22823";"Emmanuel";"RICHARDOT";"emmanuel.richardot@orange.fr";"1"
"24159";"grégoire";"RICOU";"g.ricou@fedepeche37.fr";"1"
"21086";"Jean-Claude";"ROBERDEAU";"jcroberdeau@orange.fr";"1"
"25549";"sabine";"ROBINET";"sabine.robinet@ofb.gouv.fr";"1"
"5274";"Nicolas";"ROBOUAM";"nicolas.robouam@mnhn.fr";"1"
"23613";"Honorine";"ROCHE";"rochehonorine@gmail.com";"1"
"9185";"Olivier";"ROGER";"o.roger@oge.fr";"1"
"5446";"Pierre";"ROGER";"pierre.roger@mnhn.fr";"1"
"9217";"Jean-Marie";"ROLLET";"jmrollet@cr-champagne-ardenne.fr";"1"
"1312";"Sébastien";"ROUE";"agence.sud-ouest@ecosphere.fr";"1"
"4776";"Flavie";"ROUET";"technicien-enat@cdc-oleron.fr";"1"
"23586";"Marianne";"ROUSSIER";"marianne.roussier@gmail.com";"1"
"23471";"Noémie";"ROUX";"nroux@adev-environnement.com";"1"
"22494";"Cyril";"ROUXEL";"okorijizo@gmail.com";"1"
"23594";"Philippe";"ROVERETTO";"philippe.roveretto@gmail.com";"1"
"22754";"Thierry";"ROY";"tr@cettia.fr";"1"
"691";"Alain";"ROYAUD";"royaud.alain@free.fr";"1"
"26756";"Dominique";"ROYER";"dominique.royer@ofb.gouv.fr";"1"
"10423";"Jean-Marie";"ROYER";"jeanmar.royer@wanadoo.fr";"1"
"24956";"Pierre";"RUELLE";"pi.ruelle@gmail.com";"1"
"26752";"Benjamin";"SAGLIO";"bsaglio@biotope.fr";"1"
"24000";"Margots";"SAHAGHIAN";"sahaghian.m@gmail.com";"1"
"5690";"Jean-Luc";"SAINT-MARC";"93jlsm@gmail.com";"1"
"5421";"Mathieu";"SAINT-VAL";"mathieu.saint-val@mnhn.fr";"1"
"20735";"Clémence";"SALVAUDON";"clemence.salvaudon@iea45.fr";"1"
"22919";"Hugo";"SAMAIN";"leguepier@orange.fr";"1"
"24292";"frédéric";"SANCHIS";"frederic.sanchis@developpement-durable.gouv.fr";"1"
"20736";"Julia";"SANDRE";"julia.sandre@iea45.fr";"1"
"3310";"Mathieu";"SANNIER";"motacilla@hotmail.fr";"1"
"9921";"Eric";"SANSAULT";"eric.sansault@anepe-caudalis.fr";"1"
"24963";"Nathalie";"SAUR";"nathalie.saur@ign.fr";"1"
"22673";"Jean";"SAUSSEY";"jsaussey@hotmail.fr";"1"
"23734";"Laura";"SAVIO";"laura.savio@onf.fr";"1"
"25541";"Florence";"SAVRY";"florence.savry@ecosphere.fr";"1"
"4319";"Philippe";"SCHWAB";"philippe.schwab66@gmail.com";"1"
"24334";"Benoit";"SEGERER";"segerer.b@free.fr";"1"
"24201";"MAURICE";"SEMPE";"maurice.sempe@thena-nature.fr";"1"
"7868";"Jean-Louis";"SENOTIER";"jls.senotier@free.fr";"1"
"25571";"Laura";"SERON HABERLAND";"laura.seronhaberland@gmail.com";"1"
"1940";"Tristan";"SÉVELLEC";"tristan.sevellec@yahoo.fr";"1"
"9105";"Claire";"SEVIN";"claire.sevin@onf.fr";"1"
"23951";"Marion";"SFILIGOI";"mar.leg.sfi@gmail.com";"1"
"25729";"Céline";"SHIGO";"celine.shigo@mnhn.fr";"1"
"11157";"Jean-Philippe";"SIBLET";"jean-philippe.siblet@mnhn.fr";"1"
"25562";"Sarah";"SIBONI";"sarah.siboni@auddice.com";"1"
"68";"Arnaud";"SIX";"a.six@pnrpl.com";"1"
"23604";"PAUL";"SMIECHOWSKI";"paul.smiechowski@orange.fr";"1"
"26727";"Hector";"SOUCHEYRE";"hector.soucheyre@hotmail.com";"1"
"25796";"Jea";"SOULA";"jean-michel.soulagnet@ofb.gouv.fr";"1"
"17120";"Patrick";"SOULAS";"patrick.soulas@free.fr";"1"
"8981";"Emmanuelle";"SPEH";"emmanuelle.speh@cen-centrevaldeloire.org";"1"
"24296";"Delphine";"SPITZ";"delphine.spitz@developpement-durable.gouv.fr";"1"
"23489";"Nicolas";"STEINMETZ";"nicolas.steinmetz96@outlook.fr";"1"
"22518";"Stephan";"STEPHAN";"stephanertel@hotmail.de";"1"
"25744";"Meghan";"SUQUET";"meghansqt@gmail.com";"1"
"5423";"Nastasia";"SURAND";"nastasia.surand@mnhn.fr";"1"
"4722";"Vincent";"TANQUERAY";"racaga44521@yahoo.fr";"1"
"22894";"Vottana";"TEP";"vottana.tep@cen-bourgogne.fr";"1"
"5263";"Hippolyte";"TERRONES";"hippolyte.terrones@ntymail.com";"1"
"24298";"Jean";"TEST";"test@test.fr";"1"
"3450";"User-Test";"TEST";"contact@ofsa.fr";"1"
"25794";"gilles";"THEBAULT";"gilles.thebault@ofb.fr";"1"
"3525";"Odile";"THEIS";"odiletheis@gmail.com";"1"
"6719";"Alain";"THELLIER";"alain.thellier@orange-ftgroup.com";"1"
"26788";"Philippe";"THéVENIN";"p.thevenin@oge.fr";"1"
"23027";"Emmanuelle";"THOMAS";"thomas_atc@yahoo.fr";"1"
"2256";"Anne";"TINCHANT";"atinchant@gmail.com";"1"
"5663";"Frédéric";"TINTILIER";"frederic.tintilier@calidris.fr";"1"
"2821";"Jean-Marc";"TISON";"jmltison@gmail.com";"1"
"5443";"Marlène";"TOULET";"marlene.toulet@mnhn.fr";"1"
"24031";"Océane";"TOUZET";"oceane.touzet.ise@gmail.com";"1"
"24307";"Océane";"TOUZET";"oceane.touzet@ecosphere.fr";"1"
"21000";"Mikael";"TREGUIER";"mikael.treguier@aquascop.fr";"1"
"5393";"Mathieu";"TROUVÉ";"mathieu.trouve@ingerop.com";"1"
"24387";"Cécile";"TUTON";"ctuton@biotope.fr";"1"
"5651";"Julie";"VACHER";"vacher.julie@ymail.com";"1"
"25720";"Lucas";"VALENZUELA";"valenzuela.lucas.fedepeche18@gmail.com";"1"
"5276";"Jeanne";"VALLET";"jeanne.vallet@mnhn.fr";"1"
"5761";"Emilie";"VALLEZ";"emilie.vallez@hotmail.fr";"1"
"5762";"Léonard";"VAN EYNDE";"leonard.vaneynde@orange.fr";"1"
"5299";"Fulbert";"VAN ROOIJ";"vanrooij.fulbert@gmail.com";"1"
"22840";"David";"VAUDORÉ";"vaudore.david@orange.fr";"1"
"25797";"Marie-José";"VERGON-TRIVAUDEY";"jpmjj@orange.fr";"1"
"24275";"Laure";"VERIN";"laureverin99@gmail.com";"1"
"24941";"Laure";"VERIN";"laure.verin@auddice.com";"1"
"24100";"Antoine";"VERSEIL";"antoineverseil-fd45@orange.fr";"1"
"25546";"ANTHONY";"VIERRON";"anthony.vierron@ofb.gouv.fr";"1"
"20687";"Vanessa";"VILARD";"vanessa.vilard@artifex-conseil.fr";"1"
"4294";"Elodie";"VILESKI";"elodie.vileski@ecogee.fr";"1"
"6714";"Anne";"VILLEMEY";"anne.villemey@cen-centrevaldeloire.org";"1"
"4417";"Pierre";"VINET";"p.vinet@emberiza-ecologie.fr";"1"
"23997";"Claude";"VIQUESNEL";"viclanel@outlook.fr";"1"
"24295";"Hugo";"VIRETTO";"smore@orange.fr";"1"
"4912";"Vincent";"VOELTZEL";"v.voeltzel@ouestam.fr";"1"
"22468";"Antonin";"VOISIN";"voisina@outlook.fr";"1"
"12531";"Bjorn";"VOLKERT";"bjorn.volkert@univ-tours.fr";"1"
"9045";"Emilie";"WEBER";"eweber@mnhn.fr";"1"
"23597";"Émilie";"WEBER";"emilie.wlgh@gmail.com";"1"
"5430";"Jérôme";"WEGNEZ";"jerome.wegnez@mnhn.fr";"1"
"24087";"Jc";"WEIDMANN";"jc.weidmann@gmail.com";"1"
"23479";"Guillaume";"WIDIEZ";"guillaume.widiez@ofb.gouv.fr";"1"
"21085";"Mathieu";"WILLMES";"mathieu.willmes@developpement-durable.gouv.fr";"1"
"24086";"Thibaud";"WYON";"thibaud.wyon@cen-bourgogne.fr";"1"
"5517";"Christian";"XHARDEZ";"christian.xhardez@ecosphere.fr";"1"
"17127";"Erminia";"ZAMBON";"erminia.zambon@mnhn.fr";"1"
"7968";"Maxime";"ZUCCA";"maxime.zucca@natureparif.fr";"1"
"26755";"Raphaël";"ZUMBIEHL";"agence@zoom-ecologue.com";"1"
