id;prenom;nom;email;active
7;Jean-Claude;ABADIE;j.abadie@cbnsa.fr;1
2953;Florence;AGASSE-YVER;f.agasse-yver@eec-conseil.fr;1
5418;Pascal;AMBLARD;pascal.amblard@mnhn.fr;1
5576;Frédéric;ANDRIEU;fred_andrieu@outlook.fr;1
1246;Marion;ANQUEZ;anquezmarion24@gmail.com;1
20929;Tristan;AP RHEINALLT;tristan.aprh@gmail.com;1
4771;Antoni;ARDOUIN;ardouin.antoni@live.fr;1
10670;Gérard;ARNAL;arnal.botanique@orange.fr;1
20866;Maxence;ARNAUD;marnaud@biotope.fr;1
10058;Damien;AVRIL;damien.avril@sepant.fr;1
5424;Laurent;AZUELOS;laurent.azuelos@mnhn.fr;1
5445;Amara;AZZAZ;amara.azzaz@mnhn.fr;1
9997;Christophe;BACH;christophe.bach@iea45.fr;1
9919;Renaud;BAETA;renaud.baeta@anepe-caudalis.fr;1
22599;Agnès;BALDZUHN;ninidemont@hotmail.com;1
5969;Cécile;BARBIER;cecile.barbier@cen-bourgogne.fr;1
5277;Olivier;BARDET;olivier.bardet@mnhn.fr;1
5282;Philippe;BARDIN;philippe.bardin@mnhn.fr;1
5289;Pascal;BASSET;pfmc.basset@wanadoo.fr;1
4704;Maxime;BEAUJEON;m.beaujeon@envolis.fr;1
8949;David;BÉCU;db.cpnca@wanadoo.fr;1
5411;Sylvain;BELLENFANT;sbellenfant@mnhn.fr;1
3855;Philippe;BELLIN;pmcbellin@yahoo.fr;1
7897;Christian;BERGEONNEAU;bergeonneau.christian@orange.fr;1
5997;Alain;BERGER;alain.berger@wanadoo.fr;1
5413;Romain;BERGER;romain.berger@mnhn.fr;1
2086;Christophe;BERGÈS;christophe.berges@cbnpmp.fr;1
5414;Luc;BERROD;luc.berrod@mnhn.fr;1
20865;Adrien;BERTONI;bertoni.adrien@gmail.com;1
2367;Ophélie;BESLIN;ophelie_bes@yahoo.fr;1
5487;Benjamin;BESSE;benjamin.besse@lpo.fr;1
9658;Sabine;BEUTIN;sbeutin37@hotmail.com;1
5422;Guillaume;BILLOD;guillaume.billod@mnhn.fr;1
20737;Michel;BILLOD;michel.billod@hotmail.fr;1
8;Romain;BISSOT;r.bissot@cbnsa.fr;1
8766;Arnaud;BIZOT;arnaud.bizot@wanadoo.fr;1
22546;Benoit;BOCK;b.bock@orange.fr;1
20876;Christophe;BODIN;ch.bodin@laposte.net;1
1230;Sarah;BOILLET;sarah.boillet@riviere-environnement.fr;1
4762;Valérie;BOIREL;valerie.boirel@developpement-durable.gouv.fr;1
4839;François;BOTTÉ;f.botte@yahoo.fr;1
20730;Hervé;BOUARD;hb.bouard@orange.fr;1
22590;Nicolas;BOUDEREAUX;n.boudereaux@cpie-bouclesdelamarne.fr;1
2370;Michel;BOUDRIE;michelboudrie@orange.fr;1
20890;Fabienne;BOURDIL;fabienne.bourdil@sfr.fr;1
12635;Renaud;BOURGEAIS;renaud.bourgeais@charente-maritime.fr;1
22522;Vincent;BOURGUIGNON;V.BOURGUIGNON@pnr-vexin-francais.fr;1
5759;Thibault;BOURNOUVILLE;thibault.bournouville@mnhn.fr;1
5578;Landry;BOUSSAC;landry.boussac@orange.fr;1
9578;Danielle;BOUYAHIA;danielle.bouyahia@gmail.com;1
3537;Vincent;BOUYER;vincent.bouyer@ece-environnement.com;1
3314;Pierre;BOYER;pierre.boyer.nature@gmail.com;1
3633;Jean-Emmanuel;BRASSEUR;envol.environnement@gmail.com;1
5357;Héléna;BRESSAUD;helena.bressaud@mnhn.fr;1
1217;Eric;BRUGEL;isaeric.brugel@gmail.com;1
20778;Elodie;BRUNET;elodie.brunet@ecosphere.fr;1
369;Yann;BRUNET;yann_brunet77@hotmail.com;1
1988;Jocelyne;CAMBECÈDES;jocelyne.cambecedes@cbnpmp.fr;1
5069;Silvère;CAMPONOVO;silvere.camponovo@mnhn.fr;1
1318;Michel;CANTAGREL;m_cantagrel@hotmail.com;1
22464;Evelyne;CANTONE;Evelyne.Cantone@wanadoo.fr;1
7804;Evelyne;CANTONE;evelyne.cantone@wanadoo.fr;1
9772;Charlène;CARON;ccaron@biotope.fr;1
22079;Nicolas;CARON;nicolas.caron03@gmail.com;1
1322;Marc;CARRIÈRE;les-snats@wanadoo.fr;1
17101;Paul;CASSAGNES;paul.cassagnes@ingerop.com;1
21120;Thierry;CASTEL;lesjardinsdeculetre@gmail.com;1
7441;Thierry;CASTEL;cenathi7@gmail.com;1
4275;Nathalie;CAULIEZ;nathalie.cauliez@ecogee.fr;1
5275;Gaël;CAUSSE;gael.causse@mnhn.fr;1
2593;Jaoua;CELLE;jaoua.celle@cbnmc.fr;1
20807;Colette;CENSE;colette.cense@orange.fr;1
12507;Céline;CERVEK;celine.cervek@centre.chambagri.fr;1
22729;Delphine;CHABROL;abaule@alisea-environnement.fr;1
1676;Laurent;CHABROL;laurent.chabrol@cbnmc.fr;1
5037;Alexis;CHABROUILLAUD;alexis.chabrouillaud@ne17.fr;1
20745;Elodie;CHATEL;e.chatel@eln28.org;1
22440;Myrtille;CHATENIER;myrtille.chatenier@cdpne.org;1
3895;Christian;CHAUVIN;christian.chauvin@irstea.fr;1
20789;Augustin;CHENUT;augustin.chenut@mnhn.fr;1
8883;Eva;CHÉRAMY;e.cheramy@eln28.org;1
12008;Hélène;CHEVALIER;helene.chevalier@cen-bourgogne.fr;1
21077;Nicolas;CHEVALIER;nicolas.chevalier@loiret.fr;1
20750;Richard;CHEVALIER;richevalier@wanadoo.fr;1
12083;Patrick;CHEVALLIER;patchev@club-internet.fr;1
8617;Adrien;CHOREIN;adrien.chorein@cen-centrevaldeloire.org;1
5760;Sarah;CIRÉ;sarah.cire@mnhn.fr;1
7333;Isabelle;CIVETTE;isabelle.civette@parcdumorvan.org;1
4236;Arnaud;COCHARD;arnaud.cochard@gmail.com;1
20855;Vincent;COLASSE;vincentcolasse@laposte.net;1
607;Stéphane;CORDEAU;stephane.cordeau@gmail.com;1
5273;Jordane;CORDIER;jordane.cordier@mnhn.fr;1
3860;Sylvain;COURANT;courantsylvain@yahoo.fr;1
5758;Elisa;COURRIC;elisa.courric@mnhn.fr;1
3319;Delphine;CRESPEL;delphine.crespel@auddice.com;1
5336;Aurélien;CULAT;aurelien.culat@cbnmc.fr;1
22531;Magali;DAHIREL;magali.dahirel@mnhn.fr;1
22080;Louan;DAMAS;louan.damas@lilo.org;1
3490;Michel;DANAIS;michel.danais@gmail.com;1
20847;Thibaud;DAUMAL;thibauddaumal_99@yahoo.com;1
5765;François;DEHONDT;francois.dehondt@mnhn.fr;1
20799;Nicolas;DéJEAN;ndejean@lne45.org;1
20748;Angélique;DELAHAYE;a.delahaye@nova-flore.com;1
22736;Florence;DELAROCHE;florence.delaroche@cen-centrevaldeloire.org;1
17217;Marion;DELAS;marion.delas@ecotone.fr;1
5419;Adrien;DELATTRE;adrien.delattre@mnhn.fr;1
5442;Juliette;DELIZY;juliette.delizy@mnhn.fr;1
9106;Cathy;DENIMAL;cathy.denimal@cg77.fr;1
3307;Maxime;DEPINOY;maxime.depinoy@auddice.com;1
12605;Hugo;DESBIOLLES;hugo.desbiolles@yahoo.fr;1
5876;Hugo;DESBIOLLES;hugo.desbiolles@mnhn.fr;1
17232;Alain;DESBROSSE;a.desbrosse@wanadoo.fr;1
20851;Christophe;DESCHAMPS;deschamps.christophe@wanadoo.fr;1
2354;Florient;DESMOULINS;istari91@yahoo.fr;1
5425;Jérémy;DÉTRÉE;jeremy.detree@mnhn.fr;1
6706;Cécile;DIAZ;cecile.diaz@cen-bourgogne.fr;1
20734;Cyprien;DOBRA;cbnbp.mnhn@kgb.ovh;1
8739;Marc;DOUCHIN;marc.douchin@yahoo.fr;1
11014;Emmanuel;DOUILLARD;emmanuel.douillard@parc-naturel-perche.fr;1
22512;Estelle;DUCLOS;estelle2503@hotmail.com;1
20839;Gaylord;DUJARDIN;gaylord.dujardin@ecosphere.fr;1
22101;Yann;DUMAS;yann.dumas@inrae.fr;1
2987;Rémi;DUPRÉ;remi.dupre@mnhn.fr;1
3469;Alain;DUTARTRE;alain.dutartre@free.fr;1
4340;Théo;EMERIAU;t.emeriau@cbnsa.fr;1
20779;Matthieu;ESLINE;matthieu.esline@ecosphere.fr;1
3329;Sarah;ESNAULT;sarah.esnault@orange.fr;1
16901;Vinciane;FACK;vfack@mnhn.fr;1
7017;Alain;FAVROT;favrot.alain@neuf.fr;1
5415;Eric;FEDOROFF;eric.fedoroff@mnhn.fr;1
5426;Thierry;FERNEZ;thierry.fernez@mnhn.fr;1
5427;Leslie;FERREIRA;leslie.ferreira@mnhn.fr;1
20848;Pascal;FICHOT;pascal.fichot@gmail.com;1
5281;Sébastien;FILOCHE;sebastien.filoche@mnhn.fr;1
20728;Matthieu;FLEUET;matthieu.fleuet@gmail.com;1
22807;Huon;FLORENT;florent.huon@gmail.com;1
2973;Marine;FONT;mafont@albretcommunaute.fr;1
20873;Augustin;FONTENELLE;a.fontenelle@cbnbl.org;1
20746;Benoit;FOREAU;benoit.foreau@gmail.com;1
7724;Cédric;FOUTEL;cedric.foutel@cen-bourgogne.fr;1
20724;Cécile;FRELIN;cecile.frelin@gmail.com;1
20722;Rémi;FRIOUX;remi.frioux@nature18.org;1
20723;Rémi;FRIOUX;remi.frioux@live.fr;1
12;Frédéric;FY;f.fy@cbnsa.fr;1
20901;LENA;GAHERY;lena.lngr@gmail.com;1
22492;Elisabeth;GAILLARD;elisabeth.gaillard@gmail.com;1
9974;Nicole;GAILLOT-BONNARD;Nicole.GAILLOT-BONNART@developpement-durable.gouv.fr;1
9697;Nicolas;GALAND;n.galand@pnr-vexin-francais.fr;1
17074;Céline;GASTAUD;c.gastaud@cittanova.fr;1
20;Patrick;GATIGNOL;patrick.gatignol@free.fr;1
4325;Pierre;GAUTHIER;pierre.gauthier@eccel-environnement.fr;1
577;Sarah;GAUTIER;sarah.gautier9@gmail.com;1
12603;Nicolas;GEORGES;ngeorges348@yahoo.fr;1
8890;Hélène;GERVAIS;helene.gervais@cen-bourgogne.fr;1
54;Julien;GESLIN;juliengeslin@yahoo.fr;1
20811;Maxence;GéVAUDAN;maxence.gevaudan@mnhn.fr;1
1139;Vincent;GILLET;vincent@reprolaser.fr;1
9747;Sébastien;GIRARD;sebastien.girard@valdoise.fr;1
1905;Lionel;GIRE;lionel_gire@yahoo.fr;1
7719;Samuel;GOMEZ;samuel.gomez@cen-bourgogne.fr;1
20733;Jean-Luc;GORREMANS;jean_luc.gorremans@orange.fr;1
4706;Akaren;GOUDIABY;akaren.goudiaby@amonia.fr;1
2369;Anne;GOUDOUR;anne.goudour@wanadoo.fr;1
370;Sophie;GOUEL;s.gouel@cbnsa.fr;1
64;Johan;GOURVIL;jgourvil@netcourrier.com;1
6921;Serge;GRESSETTE;serge.gressette@cen-centrevaldeloire.org;1
5431;Chantal;GRIVEAU;chantal.griveau@mnhn.fr;1
21078;Simon;GUEGUIN;simon.gueguin@loiret.fr;1
12298;Michel;GUERIN;michel.guerin@club-internet.fr;1
20738;Antoine;GUILBAUD;antoine.guilbaud@yahoo.fr;1
1204;Fanny;GUILLAUD;fanny.guillaud@gmail.com;1
16954;Vincent;GUILLEMOT;v.guillemot@hotmail.fr;1
21036;Elsa;GUILLEY;elsa.guilley@mnhn.fr;1
22781;Guillaume;HAMON;g.hamon.cen41@gmail.com;1
612;Franck;HARDY;f.hardy@cbnsa.fr;1
9617;Erik;HEDREUL;erik.hedreul@u-psud.fr;1
5444;Christine;HEIM;christine.heim@mnhn.fr;1
5280;Frédéric;HENDOUX;frederic.hendoux@mnhn.fr;1
21037;Claudette;HENNICHE;claudette.henniche@gmail.com;1
9650;Jean-Luc;HERCENT;jl.hercent@parc-oise-paysdefrance.fr;1
22547;Jean-Luc;HERCENT;jl.hercent@parc-OIse-paysdefrance.fr;1
10439;François;HERGOTT;francois.hergott@cen-centrevaldeloire.org;1
22726;Vincent;HERLEDAN;vherledan@yahoo.fr;1
4053;Colin;HOSTEIN;colin.hostein@cbnmc.fr;1
12129;Xavier;HOUARD;xavier.houard@insectes.org;1
8181;Marie;HOUESSE;marie.houesse@cen-centrevaldeloire.org;1
21113;Kenny;HUAN;kny.gaming75@gmail.com;1
21072;Kenny;HUAN;gexaxe2553@xegge.com;1
21073;Kenny;HUAN;haoxiang.huang@metapolis.fr;1
5536;Nicolas;HUGOT;nicolas.hugot@iea45.fr;1
11025;Gérard;HUNAULT;gm.hunault@orange.fr;1
1670;Ghislain;HUYGHE;g.huyghe@gmail.com;1
8180;Caroline;IDIR;caroline45plante@sfr.fr;1
1306;Sandrine;JACQUELIN;sandrine.jacquelin@onf.fr;1
16922;Marion;JANSANA;m.jansana@agglo-saintes.fr;1
21088;Philippe;JAUZEIN;p.jauzein@free.fr;1
7751;Frédéric;JEANDENAND;frederic.jeandenand@cen-bourgogne.fr;1
22125;Corentin;JEHANNO;c.jehanno@oge.fr;1
22785;Fabrice;JOACHIM;rnrc@pnrfo.org;1
3246;Nicolas;JOUBERT;njoubert@verdi-ingenierie.fr;1
8632;Antonin;JOURDAS;antoninjourdas.lne@orange.fr;1
7735;Maxime;JOUVE;maxime.jouve@cen-bourgogne.fr;1
6898;Pierre;JUILLARD;etudes.ccgc@espaces-naturels.fr;1
11905;Nese;KAPLAN;nesekaplan@sepant.fr;1
1515;Francis;KESSLER;francis.kessler@cbnpmp.fr;1
5337;Aurélien;LABROCHE;aurelien.labroche@cbnmc.fr;1
16913;Nathalie;LACHIZE;nathalie.lachize@socotec.com;1
9932;Vincent;LAIGNIEL;vincent.laignel@loir-et-cher.gouv.fr;1
20852;Anne-Marie;LAMY;am.lamy@free.fr;1
8721;Patrice;LANFANT;patrice.lanfant@cegetel.net;1
4810;Richard;LANSDOWN;rvlansdown@gmail.com;1
9968;Guillaume;LARREGLE;giom15@yahoo.fr;1
8154;Florian;LAURENCEAU;perche.nature.gestion@orange.fr;1
1248;Maxime;LAVOUÉ;maxime.lavoue@gmail.com;1
5416;Marie;LEBLANC;marie.leblanc1@mnhn.fr;1
69;Nicolas;LEBLOND;n.leblond@cbnsa.fr;1
12588;Amandine;LEBOURG;amandine.lebourg@mnhn.fr;1
22770;Julie;LEBRASSEUR;j.lebrasseur.cen41@gmail.com;1
4322;Alexis;LEBRETON;alexis.lebreton@ofb.gouv.fr;1
20781;Capucine;LEBRUN;capucine.lebrun@outlook.fr;1
21076;Céline;LEBRUN;celine.lebrun@loiret.fr;1
22124;Jérémy;LEBRUN;J.Lebrun@cen-normandie.fr;1
22596;Clotilde;LECOESTER;clotilde.lecoester@mnhn.fr;1
22499;Clotilde;LECOESTER;clothilde.lecoester@mnhn.fr;1
20854;Romaric;LECONTE;rleconte@cen-champagne-ardenne.org;1
3885;Vincent;LE GLOANEC;vincent.legloanec@cbnmc.fr;1
4267;Marion;LEGRAND;m.legrand@aquitaine-environnement.fr;1
22602;FIONA;LEHANE;direction@cpie-bouclesdelamarne.fr;1
1522;Pierre-Marie;LE HÉNAFF;pierre-marie.lehenaff@cbnmc.fr;1
22649;Valentin;LEHERICEY;v.lehericey@aepe-gingko.fr;1
21136;Clarysse;LEPROUX;clarysse.leproux@gmail.com;1
20902;Laurent;LéQUIVARD;laulequi@club-internet.fr;1
5428;Oona;LE RALLIC-MAHO;oona.le-rallic-maho@mnhn.fr;1
5061;Sébastien;LESNÉ;seb.lesne@gmail.com;1
22755;Thomas;LHEUREUX;thomas.lhx@gmail.com;1
6306;Antoine;LOMBARD;antoine.lombard@developpement-durable.gouv.fr;1
20878;Jessica;LOPEZ;jlopez77400@gmail.com;1
3629;Sandrine;LORIOT;s.loriot@cbnsa.fr;1
21131;Charlotte;LUPI;charlotte.lupin@yahoo.fr;1
20998;Bruno;MACé;br.mace@free.fr;1
3710;Mickaël;MADY;mickael.mady@cbnmc.fr;1
17184;Francois;MAILLET;frsmaillet@gmail.com;1
16959;Souleïmen;MAINARD;smainard@verdi-ingenierie.fr;1
50;Valéry;MALÉCOT;valery.malecot@agrocampus-ouest.fr;1
21001;Benjamin;MARANDON;benjaminmarandon@gmail.com;1
20874;Da Silva;MARTINS;miguel.martinsdasilv@free.fr;1
20739;Bertrand;MASSON;bertrandmasson84@gmail.com;1
6;Gaëtan;MASSON;cbsa.gm@laposte.net;1
5764;Olivier;MAUCHARD;olivier.mauchard@mnhn.fr;1
22478;Pierre;MAURICE;maurice.pierre@yahoo.fr;1
20717;Frédéric;MÉLANTOIS;frederic@melantois.fr;1
5417;Ombeline;MENARD;ombeline.menard@mnhn.fr;1
8873;Jean-Emmanuel;MÉNARD;jean-emmanuel.menard@developpement-durable.gouv.fr;1
17219;Caroline;MICALLEF;caroline.micallef@ne17.fr;1
22046;Renaud;MIELCAREK;r.mielcarek@audc51.org;1
22730;Pierre;MIGUET;pierre.miguet@yahoo.fr;1
5279;Marine;MILLET;marine.robichon@mnhn.fr;1
5949;Jean-Charles;MILLOUET;jean-charles.millouet@onf.fr;1
7319;Joël;MINOIS;joel_minois@yahoo.fr;1
4768;Margaux;MISTARZ;margaux.mistarz@mnhn.fr;1
5115;Nicolas;MOKUENKO;nicolas.mokuenko@gmail.com;1
5429;Aurore;MOLLEREAU;aurore.mollereau@mnhn.fr;1
2539;Julien;MONDION;julien.mondion@mnhn.fr;1
3600;Richard;MONIER;Richard.Monier75@gmail.com;1
3364;Sylvain;MONTAGNER;montagnersylvain@yahoo.fr;1
5665;Julien;MONTICOLO;julien.monticolo@mnhn.fr;1
4238;Frédéric;MORA;fmora@biotope.fr;1
20719;Thierry;MOREAU;thierry.moreau@cdpne.org;1
5420;Françoise;MORGAN;francoise.morgan@mnhn.fr;1
21089;Dimitri;MULTEAU;dimitri.multeau@departement41.fr;1
21025;Juliette;MURGIER;juliette.murgier@mnhn.fr;1
5763;Corentin;NICOD;corentin.nicod@mnhn.fr;1
11641;Jérémy;NOBLE;Jeremy.noble@valdoise.fr;1
11921;Eloïse;NORAZ;enoraz@lne45.org;1
4305;Coline;NOYAU;coline.noyau@lpo.fr;1
10782;Francis;OLIVEREAU;Francis.OLIVEREAU@developpement-durable.gouv.fr;1
1888;Clémence;OLLIVIER;clemolli@live.fr;1
17229;Valentine;OUROUX;valentine.ouroux502@gmail.com;1
8825;Rolland;PAILLAT;rolland.paillat@cen-centrevaldeloire.org;1
20725;Anne-Hélène;PARADIS;paradis.ah@gmail.com;1
7381;Laurent;PARIS;laurent.paris@parcdumorvan.org;1
1586;Stéphane;PERERA;stephane.perera@cbnmc.fr;1
12103;Emilie;PÉRIÉ;emilie.perie@cergypontoise.fr;1
3642;Fabrice;PERRIAT;fabrice.perriat@cbnpmp.fr;1
17013;Anais;PERRINEAU;anais.perrineau@terroiko.fr;1
4926;Michel;PERRINET;symbiose.env@orange.fr;1
22728;Théo;PERVILLé;pervilletheo@gmail.com;1
20665;Marielle;PETITEAU;marielle.petiteau@thema-environnement.fr;1
10179;Charlotte;PICARD;charlotte.picard@nature18.org;1
16989;Emmy;PLANQUAIS;emmy.planquais@mnhn.fr;1
5129;Marion;POIRET;marionpoiret@hotmail.fr;1
5286;Alexandra;POTIER;alexandra.potier@mnhn.fr;1
11123;Anne-Marie;POU;anne-marie.pou@orange.fr;1
4280;Justine;POUJOL;justinepoujol@live.fr;1
22144;aurelie;POUMAILLOUX;aurelie.poumailloux@cdpne.org;1
6859;Jean-Louis;PRATZ;jeanlouis.pratz@wanadoo.fr;1
16984;François;PRUD'HOMME;francois.prudhomme@cbnpmp.fr;1
22595;Kimberley;PRUD'HOMME;kimberley.prudhomme@mnhn.fr;1
5412;Damien;PUJOL;dpujol@mnhn.fr;1
5278;Maëlle;RAMBAUD;maelle.rambaud@mnhn.fr;1
5533;Antoine;RAVARY;aravary@systra.com;1
5436;Philippe;RAYNARD;philipperaynard@aliceadsl.fr;1
22580;Teddy;RECHER;teddy.recher@mnhn.fr;1
20821;Christophe;RENAUD;renaud.christophe@orange.fr;1
21086;Jean-Claude;ROBERDEAU;jcroberdeau@orange.fr;1
5274;Nicolas;ROBOUAM;nicolas.robouam@mnhn.fr;1
9185;Olivier;ROGER;o.roger@oge.fr;1
5446;Pierre;ROGER;pierre.roger@mnhn.fr;1
9217;Jean-Marie;ROLLET;jmrollet@cr-champagne-ardenne.fr;1
1312;Sébastien;ROUE;agence.sud-ouest@ecosphere.fr;1
4776;Flavie;ROUET;technicien-enat@cdc-oleron.fr;1
22494;Cyril;ROUXEL;okorijizo@gmail.com;1
22754;Thierry;ROY;tr@cettia.fr;1
691;Alain;ROYAUD;royaud.alain@free.fr;1
10423;Jean-Marie;ROYER;jeanmar.royer@wanadoo.fr;1
5690;Jean-Luc;SAINT-MARC;93jlsm@gmail.com;1
5421;Mathieu;SAINT-VAL;mathieu.saint-val@mnhn.fr;1
20735;Clémence;SALVAUDON;clemence.salvaudon@iea45.fr;1
20736;Julia;SANDRE;julia.sandre@iea45.fr;1
9921;Eric;SANSAULT;eric.sansault@anepe-caudalis.fr;1
22673;Jean;SAUSSEY;jsaussey@hotmail.fr;1
4319;Philippe;SCHWAB;philippe.schwab66@gmail.com;1
7868;Jean-Louis;SENOTIER;jls.senotier@free.fr;1
9105;Claire;SEVIN;claire.sevin@onf.fr;1
11157;Jean-Philippe;SIBLET;jean-philippe.siblet@mnhn.fr;1
68;Arnaud;SIX;a.six@pnrpl.com;1
17120;Patrick;SOULAS;patrick.soulas@mnhn.fr;1
8981;Emmanuelle;SPEH;emmanuelle.speh@cen-centrevaldeloire.org;1
22518;Stephan;STEPHAN;stephanertel@hotmail.de;1
5423;Nastasia;SURAND;nastasia.surand@mnhn.fr;1
3525;Odile;THEIS;odiletheis@gmail.com;1
6719;Alain;THELLIER;alain.thellier@orange-ftgroup.com;1
2256;Anne;TINCHANT;atinchant@gmail.com;1
5663;Frédéric;TINTILIER;frederic.tintilier@calidris.fr;1
5443;Marlène;TOULET;marlene.toulet@mnhn.fr;1
21000;Mikael;TREGUIER;mikael.treguier@aquascop.fr;1
5276;Jeanne;VALLET;jeanne.vallet@mnhn.fr;1
5761;Emilie;VALLEZ;emilie.vallez@hotmail.fr;1
5762;Léonard;VAN EYNDE;leonard.vaneynde@orange.fr;1
20687;Vanessa;VILARD;vanessa.vilard@artifex-conseil.fr;1
4294;Elodie;VILESKI;elodie.vileski@ecogee.fr;1
6714;Anne;VILLEMEY;anne.villemey@cen-centrevaldeloire.org;1
22468;Antonin;VOISIN;voisina@outlook.fr;1
20877;Bjorn-;VOLKERT;bjorn.volkert@univ-tours.fr;1
9045;Emilie;WEBER;eweber@mnhn.fr;1
5430;Jérôme;WEGNEZ;jerome.wegnez@mnhn.fr;1
21085;Mathieu;WILLMES;mathieu.willmes@developpement-durable.gouv.fr;1
5517;Christian;XHARDEZ;christian.xhardez@ecosphere.fr;1
17127;Erminia;ZAMBON;erminia.zambon@mnhn.fr;1
7968;Maxime;ZUCCA;maxime.zucca@natureparif.fr;1
